3  2  2     ,5  3  5     ,9  8  8     
0,0.997252,1.71E-05
1.89E-07,0.990644,4.48E-05
6.17E-07,0.982719,7.40E-05
1.29E-06,0.974684,0.000105
2.01E-06,0.965666,0.000138
2.71E-06,0.956174,0.000171
3.58E-06,0.943071,0.000213
3.99E-06,0.928709,0.000259
3.84E-06,0.915607,0.000299
3.38E-06,0.90231,0.00034
3.97E-06,0.884989,0.000393
3.96E-06,0.867644,0.000446
3.96E-06,0.857082,0.000478
3.96E-06,0.846614,0.00051
3.96E-06,0.831177,0.000558
3.96E-06,0.816271,0.000606
3.96E-06,0.804871,0.000643
3.96E-06,0.793686,0.00068
3.96E-06,0.77884,0.000732
3.96E-06,0.765686,0.000779
3.96E-06,0.75608,0.000815
3.96E-06,0.747205,0.000849
3.96E-06,0.735403,0.000898
3.96E-06,0.724945,0.000944
3.96E-06,0.716711,0.000982
3.96E-06,0.709174,0.00102
3.96E-06,0.701005,0.001067
3.95E-06,0.693306,0.001117
3.95E-06,0.688245,0.001153
3.95E-06,0.683935,0.001189
3.95E-06,0.677856,0.001256
3.95E-06,0.674567,0.001307
3.95E-06,0.67191,0.001358
3.95E-06,0.669262,0.001437
3.95E-06,0.668437,0.001482
3.95E-06,0.667879,0.001526
3.95E-06,0.667215,0.001573
3.95E-06,0.667149,0.001633
3.94E-06,0.666841,0.001695
3.94E-06,0.666413,0.001758
3.94E-06,0.665888,0.001811
3.94E-06,0.665221,0.001864
3.94E-06,0.663994,0.001935
3.94E-06,0.662877,0.001984
3.94E-06,0.661641,0.002033
3.94E-06,0.659631,0.002094
3.94E-06,0.657503,0.002148
3.94E-06,0.655027,0.002202
3.93E-06,0.650479,0.002283
3.93E-06,0.644679,0.002371
3.93E-06,0.63831,0.002456
3.93E-06,0.631229,0.002541
3.93E-06,0.623491,0.002625
3.93E-06,0.61515,0.00271
3.92E-06,0.606264,0.002795
3.92E-06,0.596892,0.002879
3.92E-06,0.587086,0.002964
3.92E-06,0.5769,0.003048
3.92E-06,0.566386,0.003133
3.92E-06,0.555899,0.003215
3.92E-06,0.544667,0.0033
3.91E-06,0.533312,0.003386
