%!PS-Adobe-3.0 EPSF-3.0
%%Title: testhetero_ngmres_ls.eps
%%Creator: matplotlib version 1.4.3, http://matplotlib.org/
%%CreationDate: Fri Jul 10 00:39:32 2015
%%Orientation: portrait
%%BoundingBox: 18 180 594 612
%%EndComments
%%BeginProlog
/mpldict 8 dict def
mpldict begin
/m { moveto } bind def
/l { lineto } bind def
/r { rlineto } bind def
/c { curveto } bind def
/cl { closepath } bind def
/box {
m
1 index 0 r
0 exch r
neg 0 r
cl
} bind def
/clipbox {
box
clip
newpath
} bind def
%!PS-Adobe-3.0 Resource-Font
%%Title: Bitstream Vera Sans
%%Copyright: Copyright (c) 2003 by Bitstream, Inc. All Rights Reserved.
%%Creator: Converted from TrueType to type 3 by PPR
25 dict begin
/_d{bind def}bind def
/_m{moveto}_d
/_l{lineto}_d
/_cl{closepath eofill}_d
/_c{curveto}_d
/_sc{7 -1 roll{setcachedevice}{pop pop pop pop pop pop}ifelse}_d
/_e{exec}_d
/FontName /BitstreamVeraSans-Roman def
/PaintType 0 def
/FontMatrix[.001 0 0 .001 0 0]def
/FontBBox[-183 -236 1287 928]def
/FontType 3 def
/Encoding [ /space /hyphen /zero /one /two /three /four /five /six /seven /eight /N /R /a /d /e /i /l /m /n /o /r /s /t /u /w ] def
/FontInfo 10 dict dup begin
/FamilyName (Bitstream Vera Sans) def
/FullName (Bitstream Vera Sans) def
/Notice (Copyright (c) 2003 by Bitstream, Inc. All Rights Reserved. Bitstream Vera is a trademark of Bitstream, Inc.) def
/Weight (Roman) def
/Version (Release 1.10) def
/ItalicAngle 0.0 def
/isFixedPitch false def
/UnderlinePosition -213 def
/UnderlineThickness 143 def
end readonly def
/CharStrings 26 dict dup begin
/space{318 0 0 0 0 0 _sc
}_d
/hyphen{361 0 49 234 312 314 _sc
49 314 _m
312 314 _l
312 234 _l
49 234 _l
49 314 _l
_cl}_d
/zero{636 0 66 -13 570 742 _sc
318 664 _m
267 664 229 639 203 589 _c
177 539 165 464 165 364 _c
165 264 177 189 203 139 _c
229 89 267 64 318 64 _c
369 64 407 89 433 139 _c
458 189 471 264 471 364 _c
471 464 458 539 433 589 _c
407 639 369 664 318 664 _c
318 742 _m
399 742 461 709 505 645 _c
548 580 570 486 570 364 _c
570 241 548 147 505 83 _c
461 19 399 -13 318 -13 _c
236 -13 173 19 130 83 _c
87 147 66 241 66 364 _c
66 486 87 580 130 645 _c
173 709 236 742 318 742 _c
_cl}_d
/one{636 0 110 0 544 729 _sc
124 83 _m
285 83 _l
285 639 _l
110 604 _l
110 694 _l
284 729 _l
383 729 _l
383 83 _l
544 83 _l
544 0 _l
124 0 _l
124 83 _l
_cl}_d
/two{{636 0 73 0 536 742 _sc
192 83 _m
536 83 _l
536 0 _l
73 0 _l
73 83 _l
110 121 161 173 226 239 _c
290 304 331 346 348 365 _c
380 400 402 430 414 455 _c
426 479 433 504 433 528 _c
433 566 419 598 392 622 _c
365 646 330 659 286 659 _c
255 659 222 653 188 643 _c
154 632 117 616 78 594 _c
78 694 _l
118 710 155 722 189 730 _c
223 738 255 742 284 742 _c
}_e{359 742 419 723 464 685 _c
509 647 532 597 532 534 _c
532 504 526 475 515 449 _c
504 422 484 390 454 354 _c
446 344 420 317 376 272 _c
332 227 271 164 192 83 _c
_cl}_e}_d
/three{{636 0 76 -13 556 742 _sc
406 393 _m
453 383 490 362 516 330 _c
542 298 556 258 556 212 _c
556 140 531 84 482 45 _c
432 6 362 -13 271 -13 _c
240 -13 208 -10 176 -4 _c
144 1 110 10 76 22 _c
76 117 _l
103 101 133 89 166 81 _c
198 73 232 69 268 69 _c
330 69 377 81 409 105 _c
441 129 458 165 458 212 _c
458 254 443 288 413 312 _c
383 336 341 349 287 349 _c
}_e{202 349 _l
202 430 _l
291 430 _l
339 430 376 439 402 459 _c
428 478 441 506 441 543 _c
441 580 427 609 401 629 _c
374 649 336 659 287 659 _c
260 659 231 656 200 650 _c
169 644 135 635 98 623 _c
98 711 _l
135 721 170 729 203 734 _c
235 739 266 742 296 742 _c
370 742 429 725 473 691 _c
517 657 539 611 539 553 _c
539 513 527 479 504 451 _c
481 423 448 403 406 393 _c
_cl}_e}_d
/four{636 0 49 0 580 729 _sc
378 643 _m
129 254 _l
378 254 _l
378 643 _l
352 729 _m
476 729 _l
476 254 _l
580 254 _l
580 172 _l
476 172 _l
476 0 _l
378 0 _l
378 172 _l
49 172 _l
49 267 _l
352 729 _l
_cl}_d
/five{{636 0 77 -13 549 729 _sc
108 729 _m
495 729 _l
495 646 _l
198 646 _l
198 467 _l
212 472 227 476 241 478 _c
255 480 270 482 284 482 _c
365 482 429 459 477 415 _c
525 370 549 310 549 234 _c
549 155 524 94 475 51 _c
426 8 357 -13 269 -13 _c
238 -13 207 -10 175 -6 _c
143 -1 111 6 77 17 _c
77 116 _l
106 100 136 88 168 80 _c
199 72 232 69 267 69 _c
}_e{323 69 368 83 401 113 _c
433 143 450 183 450 234 _c
450 284 433 324 401 354 _c
368 384 323 399 267 399 _c
241 399 214 396 188 390 _c
162 384 135 375 108 363 _c
108 729 _l
_cl}_e}_d
/six{{636 0 70 -13 573 742 _sc
330 404 _m
286 404 251 388 225 358 _c
199 328 186 286 186 234 _c
186 181 199 139 225 109 _c
251 79 286 64 330 64 _c
374 64 409 79 435 109 _c
461 139 474 181 474 234 _c
474 286 461 328 435 358 _c
409 388 374 404 330 404 _c
526 713 _m
526 623 _l
501 635 476 644 451 650 _c
425 656 400 659 376 659 _c
310 659 260 637 226 593 _c
}_e{192 549 172 482 168 394 _c
187 422 211 444 240 459 _c
269 474 301 482 336 482 _c
409 482 467 459 509 415 _c
551 371 573 310 573 234 _c
573 159 550 99 506 54 _c
462 9 403 -13 330 -13 _c
246 -13 181 19 137 83 _c
92 147 70 241 70 364 _c
70 479 97 571 152 639 _c
206 707 280 742 372 742 _c
396 742 421 739 447 735 _c
472 730 498 723 526 713 _c
_cl}_e}_d
/seven{636 0 82 0 551 729 _sc
82 729 _m
551 729 _l
551 687 _l
286 0 _l
183 0 _l
432 646 _l
82 646 _l
82 729 _l
_cl}_d
/eight{{636 0 68 -13 568 742 _sc
318 346 _m
271 346 234 333 207 308 _c
180 283 167 249 167 205 _c
167 161 180 126 207 101 _c
234 76 271 64 318 64 _c
364 64 401 76 428 102 _c
455 127 469 161 469 205 _c
469 249 455 283 429 308 _c
402 333 365 346 318 346 _c
219 388 _m
177 398 144 418 120 447 _c
96 476 85 511 85 553 _c
85 611 105 657 147 691 _c
188 725 245 742 318 742 _c
}_e{390 742 447 725 489 691 _c
530 657 551 611 551 553 _c
551 511 539 476 515 447 _c
491 418 459 398 417 388 _c
464 377 501 355 528 323 _c
554 291 568 251 568 205 _c
568 134 546 80 503 43 _c
459 5 398 -13 318 -13 _c
237 -13 175 5 132 43 _c
89 80 68 134 68 205 _c
68 251 81 291 108 323 _c
134 355 171 377 219 388 _c
183 544 _m
183 506 194 476 218 455 _c
}_e{242 434 275 424 318 424 _c
360 424 393 434 417 455 _c
441 476 453 506 453 544 _c
453 582 441 611 417 632 _c
393 653 360 664 318 664 _c
275 664 242 653 218 632 _c
194 611 183 582 183 544 _c
_cl}_e}_d
/N{748 0 98 0 650 729 _sc
98 729 _m
231 729 _l
554 119 _l
554 729 _l
650 729 _l
650 0 _l
517 0 _l
194 610 _l
194 0 _l
98 0 _l
98 729 _l
_cl}_d
/R{{695 0 98 0 666 729 _sc
444 342 _m
465 334 486 319 506 296 _c
526 272 546 240 566 199 _c
666 0 _l
560 0 _l
467 187 _l
443 235 419 268 397 284 _c
374 300 343 308 304 308 _c
197 308 _l
197 0 _l
98 0 _l
98 729 _l
321 729 _l
404 729 466 711 507 677 _c
548 642 569 589 569 519 _c
569 473 558 434 537 404 _c
515 374 484 353 444 342 _c
197 648 _m
197 389 _l
321 389 _l
}_e{368 389 404 400 428 422 _c
452 444 465 476 465 519 _c
465 561 452 593 428 615 _c
404 637 368 648 321 648 _c
197 648 _l
_cl}_e}_d
/a{{613 0 60 -13 522 560 _sc
343 275 _m
270 275 220 266 192 250 _c
164 233 150 205 150 165 _c
150 133 160 107 181 89 _c
202 70 231 61 267 61 _c
317 61 357 78 387 114 _c
417 149 432 196 432 255 _c
432 275 _l
343 275 _l
522 312 _m
522 0 _l
432 0 _l
432 83 _l
411 49 385 25 355 10 _c
325 -5 287 -13 243 -13 _c
187 -13 142 2 109 33 _c
76 64 60 106 60 159 _c
}_e{60 220 80 266 122 298 _c
163 329 224 345 306 345 _c
432 345 _l
432 354 _l
432 395 418 427 391 450 _c
364 472 326 484 277 484 _c
245 484 215 480 185 472 _c
155 464 127 453 100 439 _c
100 522 _l
132 534 164 544 195 550 _c
226 556 256 560 286 560 _c
365 560 424 539 463 498 _c
502 457 522 395 522 312 _c
_cl}_e}_d
/d{{635 0 55 -13 544 760 _sc
454 464 _m
454 760 _l
544 760 _l
544 0 _l
454 0 _l
454 82 _l
435 49 411 25 382 10 _c
353 -5 319 -13 279 -13 _c
213 -13 159 13 117 65 _c
75 117 55 187 55 273 _c
55 359 75 428 117 481 _c
159 533 213 560 279 560 _c
319 560 353 552 382 536 _c
411 520 435 496 454 464 _c
148 273 _m
148 207 161 155 188 117 _c
215 79 253 61 301 61 _c
}_e{348 61 385 79 413 117 _c
440 155 454 207 454 273 _c
454 339 440 390 413 428 _c
385 466 348 485 301 485 _c
253 485 215 466 188 428 _c
161 390 148 339 148 273 _c
_cl}_e}_d
/e{{615 0 55 -13 562 560 _sc
562 296 _m
562 252 _l
149 252 _l
153 190 171 142 205 110 _c
238 78 284 62 344 62 _c
378 62 412 66 444 74 _c
476 82 509 95 541 113 _c
541 28 _l
509 14 476 3 442 -3 _c
408 -9 373 -13 339 -13 _c
251 -13 182 12 131 62 _c
80 112 55 181 55 268 _c
55 357 79 428 127 481 _c
175 533 241 560 323 560 _c
397 560 455 536 498 489 _c
}_e{540 441 562 377 562 296 _c
472 322 _m
471 371 457 410 431 440 _c
404 469 368 484 324 484 _c
274 484 234 469 204 441 _c
174 413 156 373 152 322 _c
472 322 _l
_cl}_e}_d
/i{278 0 94 0 184 760 _sc
94 547 _m
184 547 _l
184 0 _l
94 0 _l
94 547 _l
94 760 _m
184 760 _l
184 646 _l
94 646 _l
94 760 _l
_cl}_d
/l{278 0 94 0 184 760 _sc
94 760 _m
184 760 _l
184 0 _l
94 0 _l
94 760 _l
_cl}_d
/m{{974 0 91 0 889 560 _sc
520 442 _m
542 482 569 511 600 531 _c
631 550 668 560 711 560 _c
767 560 811 540 842 500 _c
873 460 889 403 889 330 _c
889 0 _l
799 0 _l
799 327 _l
799 379 789 418 771 444 _c
752 469 724 482 686 482 _c
639 482 602 466 575 435 _c
548 404 535 362 535 309 _c
535 0 _l
445 0 _l
445 327 _l
445 379 435 418 417 444 _c
398 469 369 482 331 482 _c
}_e{285 482 248 466 221 435 _c
194 404 181 362 181 309 _c
181 0 _l
91 0 _l
91 547 _l
181 547 _l
181 462 _l
201 495 226 520 255 536 _c
283 552 317 560 357 560 _c
397 560 430 550 458 530 _c
486 510 506 480 520 442 _c
_cl}_e}_d
/n{634 0 91 0 549 560 _sc
549 330 _m
549 0 _l
459 0 _l
459 327 _l
459 379 448 417 428 443 _c
408 469 378 482 338 482 _c
289 482 251 466 223 435 _c
195 404 181 362 181 309 _c
181 0 _l
91 0 _l
91 547 _l
181 547 _l
181 462 _l
202 494 227 519 257 535 _c
286 551 320 560 358 560 _c
420 560 468 540 500 501 _c
532 462 549 405 549 330 _c
_cl}_d
/o{612 0 55 -13 557 560 _sc
306 484 _m
258 484 220 465 192 427 _c
164 389 150 338 150 273 _c
150 207 163 156 191 118 _c
219 80 257 62 306 62 _c
354 62 392 80 420 118 _c
448 156 462 207 462 273 _c
462 337 448 389 420 427 _c
392 465 354 484 306 484 _c
306 560 _m
384 560 445 534 490 484 _c
534 433 557 363 557 273 _c
557 183 534 113 490 63 _c
445 12 384 -13 306 -13 _c
227 -13 165 12 121 63 _c
77 113 55 183 55 273 _c
55 363 77 433 121 484 _c
165 534 227 560 306 560 _c
_cl}_d
/r{411 0 91 0 411 560 _sc
411 463 _m
401 469 390 473 378 476 _c
366 478 353 480 339 480 _c
288 480 249 463 222 430 _c
194 397 181 350 181 288 _c
181 0 _l
91 0 _l
91 547 _l
181 547 _l
181 462 _l
199 495 224 520 254 536 _c
284 552 321 560 365 560 _c
371 560 378 559 386 559 _c
393 558 401 557 411 555 _c
411 463 _l
_cl}_d
/s{{521 0 54 -13 472 560 _sc
443 531 _m
443 446 _l
417 458 391 468 364 475 _c
336 481 308 485 279 485 _c
234 485 200 478 178 464 _c
156 450 145 430 145 403 _c
145 382 153 366 169 354 _c
185 342 217 330 265 320 _c
296 313 _l
360 299 405 279 432 255 _c
458 230 472 195 472 151 _c
472 100 452 60 412 31 _c
372 1 316 -13 246 -13 _c
216 -13 186 -10 154 -5 _c
}_e{122 0 89 8 54 20 _c
54 113 _l
87 95 120 82 152 74 _c
184 65 216 61 248 61 _c
290 61 323 68 346 82 _c
368 96 380 117 380 144 _c
380 168 371 187 355 200 _c
339 213 303 226 247 238 _c
216 245 _l
160 257 119 275 95 299 _c
70 323 58 356 58 399 _c
58 450 76 490 112 518 _c
148 546 200 560 268 560 _c
301 560 332 557 362 552 _c
391 547 418 540 443 531 _c
}_e{_cl}_e}_d
/t{392 0 27 0 368 702 _sc
183 702 _m
183 547 _l
368 547 _l
368 477 _l
183 477 _l
183 180 _l
183 135 189 106 201 94 _c
213 81 238 75 276 75 _c
368 75 _l
368 0 _l
276 0 _l
206 0 158 13 132 39 _c
106 65 93 112 93 180 _c
93 477 _l
27 477 _l
27 547 _l
93 547 _l
93 702 _l
183 702 _l
_cl}_d
/u{634 0 85 -13 543 547 _sc
85 216 _m
85 547 _l
175 547 _l
175 219 _l
175 167 185 129 205 103 _c
225 77 255 64 296 64 _c
344 64 383 79 411 110 _c
439 141 453 183 453 237 _c
453 547 _l
543 547 _l
543 0 _l
453 0 _l
453 84 _l
431 50 405 26 377 10 _c
348 -5 315 -13 277 -13 _c
214 -13 166 6 134 45 _c
101 83 85 140 85 216 _c
_cl}_d
/w{818 0 42 0 776 547 _sc
42 547 _m
132 547 _l
244 120 _l
356 547 _l
462 547 _l
574 120 _l
686 547 _l
776 547 _l
633 0 _l
527 0 _l
409 448 _l
291 0 _l
185 0 _l
42 547 _l
_cl}_d
end readonly def

/BuildGlyph
 {exch begin
 CharStrings exch
 2 copy known not{pop /.notdef}if
 true 3 1 roll get exec
 end}_d

/BuildChar {
 1 index /Encoding get exch get
 1 index /BuildGlyph get exec
}_d

FontName currentdict end definefont pop
end
%%EndProlog
mpldict begin
18 180 translate
576 432 0 0 clipbox
gsave
0 0 m
576 0 l
576 432 l
0 432 l
cl
1.000 setgray
fill
grestore
gsave
72 43.2 m
518.4 43.2 l
518.4 388.8 l
72 388.8 l
cl
1.000 setgray
fill
grestore
1.000 setlinewidth
1 setlinejoin
2 setlinecap
[] 0 setdash
0.000 0.000 1.000 setrgbcolor
gsave
446.4 345.6 72 43.2 clipbox
72 381.437 m
127.8 372.339 l
183.6 335.236 l
239.4 302.629 l
295.2 264.99 l
351 194.987 l
406.8 65.7253 l
stroke
grestore
0.000 0.500 0.000 setrgbcolor
gsave
446.4 345.6 72 43.2 clipbox
72 363.601 m
127.8 322.385 l
183.6 235.88 l
239.4 99.2482 l
stroke
grestore
1.000 0.000 0.000 setrgbcolor
gsave
446.4 345.6 72 43.2 clipbox
72 363.219 m
127.8 336.01 l
183.6 311.349 l
239.4 274.881 l
295.2 209.941 l
351 88.8793 l
stroke
grestore
0.000 0.750 0.750 setrgbcolor
gsave
446.4 345.6 72 43.2 clipbox
72 363.23 m
127.8 335.199 l
183.6 314.338 l
239.4 277.42 l
295.2 211.948 l
351 87.7366 l
stroke
grestore
0.750 0.000 0.750 setrgbcolor
gsave
446.4 345.6 72 43.2 clipbox
72 362.154 m
127.8 328.663 l
183.6 303.066 l
239.4 263.897 l
295.2 193.478 l
351 63.3655 l
stroke
grestore
0.750 0.750 0.000 setrgbcolor
gsave
446.4 345.6 72 43.2 clipbox
72 360.428 m
127.8 321.814 l
183.6 268.171 l
239.4 195.092 l
295.2 66.439 l
stroke
grestore
0.000 setgray
gsave
446.4 345.6 72 43.2 clipbox
72 360.768 m
127.8 324.556 l
183.6 287.18 l
239.4 246.104 l
295.2 174.616 l
stroke
grestore
0.000 0.000 1.000 setrgbcolor
gsave
446.4 345.6 72 43.2 clipbox
72 361.754 m
127.8 329.566 l
183.6 285.601 l
239.4 240.106 l
295.2 177.035 l
351 54.0799 l
stroke
grestore
0.000 0.500 0.000 setrgbcolor
gsave
446.4 345.6 72 43.2 clipbox
72 361.555 m
127.8 329.468 l
183.6 282.932 l
239.4 245.824 l
295.2 183.704 l
351 61.6424 l
stroke
grestore
1.000 0.000 0.000 setrgbcolor
gsave
446.4 345.6 72 43.2 clipbox
72 360.492 m
127.8 326.147 l
183.6 272.55 l
239.4 207.541 l
295.2 106.363 l
stroke
grestore
0.000 0.750 0.750 setrgbcolor
gsave
446.4 345.6 72 43.2 clipbox
72 360.249 m
127.8 324.311 l
183.6 277.708 l
239.4 246.572 l
295.2 191.506 l
351 81.866 l
stroke
grestore
0.750 0.000 0.750 setrgbcolor
gsave
446.4 345.6 72 43.2 clipbox
72 361.368 m
127.8 325.434 l
183.6 278.542 l
239.4 225.378 l
295.2 127.282 l
stroke
grestore
0.750 0.750 0.000 setrgbcolor
gsave
446.4 345.6 72 43.2 clipbox
72 360.526 m
127.8 321.833 l
183.6 268.385 l
239.4 207.454 l
295.2 102.984 l
stroke
grestore
0.000 setgray
gsave
446.4 345.6 72 43.2 clipbox
72 360.796 m
127.8 322.868 l
183.6 269.096 l
239.4 219.829 l
295.2 135.61 l
stroke
grestore
0.000 0.000 1.000 setrgbcolor
gsave
446.4 345.6 72 43.2 clipbox
72 360.769 m
127.8 323.378 l
183.6 265.687 l
239.4 187.154 l
295.2 51.2974 l
stroke
grestore
0.000 0.500 0.000 setrgbcolor
gsave
446.4 345.6 72 43.2 clipbox
72 361.409 m
127.8 324.49 l
183.6 282.866 l
239.4 226.983 l
295.2 127.478 l
stroke
grestore
1.000 0.000 0.000 setrgbcolor
gsave
446.4 345.6 72 43.2 clipbox
72 361.697 m
127.8 324.283 l
183.6 281.971 l
239.4 212.429 l
295.2 79.2802 l
stroke
grestore
0.000 0.750 0.750 setrgbcolor
gsave
446.4 345.6 72 43.2 clipbox
72 361.579 m
127.8 324.734 l
183.6 274.254 l
239.4 227.802 l
295.2 139.322 l
stroke
grestore
0.750 0.000 0.750 setrgbcolor
gsave
446.4 345.6 72 43.2 clipbox
72 361.898 m
127.8 326.391 l
183.6 274.637 l
239.4 214.728 l
295.2 129.449 l
stroke
grestore
0.750 0.750 0.000 setrgbcolor
gsave
446.4 345.6 72 43.2 clipbox
72 362.582 m
127.8 325.825 l
183.6 294.865 l
239.4 252.853 l
295.2 184.262 l
351 56.3342 l
stroke
grestore
0.000 setgray
gsave
446.4 345.6 72 43.2 clipbox
72 363.208 m
127.8 327.19 l
183.6 296.399 l
239.4 251.884 l
295.2 186.662 l
351 56.951 l
stroke
grestore
0.000 0.000 1.000 setrgbcolor
gsave
446.4 345.6 72 43.2 clipbox
72 362.882 m
127.8 325.421 l
183.6 294.322 l
239.4 251.703 l
295.2 185.935 l
351 59.4135 l
stroke
grestore
0.000 0.500 0.000 setrgbcolor
gsave
446.4 345.6 72 43.2 clipbox
72 363.192 m
127.8 326.07 l
183.6 295.917 l
239.4 251.928 l
295.2 181.108 l
351 52.058 l
stroke
grestore
1.000 0.000 0.000 setrgbcolor
gsave
446.4 345.6 72 43.2 clipbox
72 363.228 m
127.8 327.032 l
183.6 292.121 l
239.4 242.782 l
295.2 163.902 l
stroke
grestore
0.000 0.750 0.750 setrgbcolor
gsave
446.4 345.6 72 43.2 clipbox
72 363.402 m
127.8 325.934 l
183.6 299.826 l
239.4 251.72 l
295.2 179.781 l
351 52.3446 l
stroke
grestore
0.750 0.000 0.750 setrgbcolor
gsave
446.4 345.6 72 43.2 clipbox
72 363.723 m
127.8 327.977 l
183.6 304.837 l
239.4 257.915 l
295.2 190.783 l
351 64.4832 l
stroke
grestore
0.750 0.750 0.000 setrgbcolor
gsave
446.4 345.6 72 43.2 clipbox
72 364.024 m
127.8 328.781 l
183.6 297.75 l
239.4 257.257 l
295.2 195.261 l
351 73.5973 l
stroke
grestore
0.000 setgray
gsave
446.4 345.6 72 43.2 clipbox
72 364.044 m
127.8 330.019 l
183.6 302.35 l
239.4 260.41 l
295.2 198.644 l
351 78.4966 l
stroke
grestore
0.000 0.000 1.000 setrgbcolor
gsave
446.4 345.6 72 43.2 clipbox
72 363.957 m
127.8 329.813 l
183.6 301.921 l
239.4 255.621 l
295.2 189.182 l
351 64.3605 l
stroke
grestore
0.000 0.500 0.000 setrgbcolor
gsave
446.4 345.6 72 43.2 clipbox
72 363.775 m
127.8 327.923 l
183.6 300.509 l
239.4 260.134 l
295.2 199.068 l
351 82.6335 l
stroke
grestore
1.000 0.000 0.000 setrgbcolor
gsave
446.4 345.6 72 43.2 clipbox
72 364.12 m
127.8 329.678 l
183.6 308.789 l
239.4 270.066 l
295.2 210.026 l
351 91.9834 l
stroke
grestore
0.000 0.750 0.750 setrgbcolor
gsave
446.4 345.6 72 43.2 clipbox
72 363.665 m
127.8 329.432 l
183.6 305.148 l
239.4 265.578 l
295.2 207.426 l
351 91.3383 l
stroke
grestore
0.750 0.000 0.750 setrgbcolor
gsave
446.4 345.6 72 43.2 clipbox
72 362.677 m
127.8 328.298 l
183.6 304.876 l
239.4 259.24 l
295.2 189.49 l
351 58.2364 l
stroke
grestore
0.750 0.750 0.000 setrgbcolor
gsave
446.4 345.6 72 43.2 clipbox
72 361.401 m
127.8 323.291 l
183.6 305.469 l
239.4 260.433 l
295.2 191.016 l
351 58.3456 l
stroke
grestore
0.000 setgray
gsave
446.4 345.6 72 43.2 clipbox
72 361.114 m
127.8 320.873 l
183.6 300.312 l
239.4 255.143 l
295.2 186.579 l
351 53.4072 l
stroke
grestore
0.000 0.000 1.000 setrgbcolor
gsave
446.4 345.6 72 43.2 clipbox
72 361.659 m
127.8 326.922 l
183.6 305.136 l
239.4 255.259 l
295.2 178.741 l
351 48.681 l
stroke
grestore
0.000 0.500 0.000 setrgbcolor
gsave
446.4 345.6 72 43.2 clipbox
72 361.635 m
127.8 323.823 l
183.6 304.981 l
239.4 257.899 l
295.2 184.807 l
351 51.6191 l
stroke
grestore
1.000 0.000 0.000 setrgbcolor
gsave
446.4 345.6 72 43.2 clipbox
72 361.67 m
127.8 323.061 l
183.6 304.654 l
239.4 255.962 l
295.2 181.932 l
351 48.958 l
stroke
grestore
0.000 0.750 0.750 setrgbcolor
gsave
446.4 345.6 72 43.2 clipbox
72 361.297 m
127.8 324.449 l
183.6 306.452 l
239.4 254.129 l
295.2 176.644 l
351 48.0053 l
stroke
grestore
0.750 0.000 0.750 setrgbcolor
gsave
446.4 345.6 72 43.2 clipbox
72 361.257 m
127.8 322.463 l
183.6 302.378 l
239.4 252.957 l
295.2 179.927 l
351 49.037 l
stroke
grestore
0.750 0.750 0.000 setrgbcolor
gsave
446.4 345.6 72 43.2 clipbox
72 361.373 m
127.8 324.128 l
183.6 302.03 l
239.4 253.546 l
295.2 180.215 l
351 78.0438 l
stroke
grestore
0.000 setgray
gsave
446.4 345.6 72 43.2 clipbox
72 361.378 m
127.8 323.21 l
183.6 307.112 l
239.4 257.938 l
295.2 187.906 l
351 58.0266 l
stroke
grestore
0.000 0.000 1.000 setrgbcolor
gsave
446.4 345.6 72 43.2 clipbox
72 360.786 m
127.8 320.962 l
183.6 297.973 l
239.4 248.959 l
295.2 165.723 l
stroke
grestore
0.000 0.500 0.000 setrgbcolor
gsave
446.4 345.6 72 43.2 clipbox
72 361.306 m
127.8 322.743 l
183.6 305.429 l
239.4 258.684 l
295.2 187.197 l
351 53.8103 l
stroke
grestore
1.000 0.000 0.000 setrgbcolor
gsave
446.4 345.6 72 43.2 clipbox
72 360.736 m
127.8 321.508 l
183.6 303.574 l
239.4 255.748 l
295.2 186.285 l
351 51.989 l
stroke
grestore
0.000 0.750 0.750 setrgbcolor
gsave
446.4 345.6 72 43.2 clipbox
72 360.646 m
127.8 320.554 l
183.6 299.832 l
239.4 252.19 l
295.2 190.249 l
351 58.165 l
stroke
grestore
0.750 0.000 0.750 setrgbcolor
gsave
446.4 345.6 72 43.2 clipbox
72 360.729 m
127.8 323.221 l
183.6 302.716 l
239.4 259.614 l
295.2 188.746 l
351 54.018 l
stroke
grestore
0.750 0.750 0.000 setrgbcolor
gsave
446.4 345.6 72 43.2 clipbox
72 360.496 m
127.8 322.593 l
183.6 303.196 l
239.4 255.429 l
295.2 184.794 l
351 51.7185 l
stroke
grestore
0.000 setgray
gsave
446.4 345.6 72 43.2 clipbox
72 360.286 m
127.8 322.043 l
183.6 299.422 l
239.4 253.71 l
295.2 165.029 l
stroke
grestore
0.000 0.000 1.000 setrgbcolor
gsave
446.4 345.6 72 43.2 clipbox
72 360.301 m
127.8 322.109 l
183.6 304.735 l
239.4 260.446 l
295.2 188.94 l
351 50.9926 l
stroke
grestore
0.000 0.500 0.000 setrgbcolor
gsave
446.4 345.6 72 43.2 clipbox
72 359.751 m
127.8 319.571 l
183.6 295.524 l
239.4 240.497 l
295.2 155.709 l
stroke
grestore
1.000 0.000 0.000 setrgbcolor
gsave
446.4 345.6 72 43.2 clipbox
72 360.402 m
127.8 324.338 l
183.6 301.401 l
239.4 258.995 l
295.2 191.952 l
351 60.8879 l
stroke
grestore
0.000 0.750 0.750 setrgbcolor
gsave
446.4 345.6 72 43.2 clipbox
72 360.35 m
127.8 325.453 l
183.6 299.688 l
239.4 252.941 l
295.2 178.457 l
351 48.786 l
stroke
grestore
0.750 0.000 0.750 setrgbcolor
gsave
446.4 345.6 72 43.2 clipbox
72 359.847 m
127.8 322.418 l
183.6 300.54 l
239.4 244.23 l
295.2 159.385 l
stroke
grestore
0.750 0.750 0.000 setrgbcolor
gsave
446.4 345.6 72 43.2 clipbox
72 359.841 m
127.8 323.345 l
183.6 300.068 l
239.4 261.269 l
295.2 178.725 l
351 47.7605 l
stroke
grestore
0.000 setgray
gsave
446.4 345.6 72 43.2 clipbox
72 360.884 m
127.8 325.056 l
183.6 304.564 l
239.4 254.689 l
295.2 183.881 l
351 54.4703 l
stroke
grestore
0.000 0.000 1.000 setrgbcolor
gsave
446.4 345.6 72 43.2 clipbox
72 360.239 m
127.8 322.159 l
183.6 302.675 l
239.4 256.017 l
295.2 185.337 l
351 50.7738 l
stroke
grestore
0.000 0.500 0.000 setrgbcolor
gsave
446.4 345.6 72 43.2 clipbox
72 360.844 m
127.8 324.304 l
183.6 305.501 l
239.4 256.336 l
295.2 180.189 l
351 50.3451 l
stroke
grestore
1.000 0.000 0.000 setrgbcolor
gsave
446.4 345.6 72 43.2 clipbox
72 360.003 m
127.8 321.062 l
183.6 301.986 l
239.4 257.432 l
295.2 185.786 l
351 51.5163 l
stroke
grestore
0.000 0.750 0.750 setrgbcolor
gsave
446.4 345.6 72 43.2 clipbox
72 360.891 m
127.8 324.481 l
183.6 305.786 l
239.4 263.339 l
295.2 192.151 l
351 60.5646 l
stroke
grestore
0.750 0.000 0.750 setrgbcolor
gsave
446.4 345.6 72 43.2 clipbox
72 360.967 m
127.8 323.39 l
183.6 306.155 l
239.4 259.652 l
295.2 193.836 l
351 66.0285 l
stroke
grestore
0.750 0.750 0.000 setrgbcolor
gsave
446.4 345.6 72 43.2 clipbox
72 360.275 m
127.8 321.148 l
183.6 301.79 l
239.4 257.682 l
295.2 187.995 l
351 54.7478 l
stroke
grestore
0.000 setgray
gsave
446.4 345.6 72 43.2 clipbox
72 360.134 m
127.8 321.933 l
183.6 304.056 l
239.4 263.325 l
295.2 190.394 l
351 57.7587 l
stroke
grestore
0.000 0.000 1.000 setrgbcolor
gsave
446.4 345.6 72 43.2 clipbox
72 360.119 m
127.8 322.77 l
183.6 303.252 l
239.4 258.553 l
295.2 192.014 l
351 62.7056 l
stroke
grestore
0.000 0.500 0.000 setrgbcolor
gsave
446.4 345.6 72 43.2 clipbox
72 361.06 m
127.8 325.204 l
183.6 310.032 l
239.4 265.799 l
295.2 191.411 l
351 58.1055 l
stroke
grestore
1.000 0.000 0.000 setrgbcolor
gsave
446.4 345.6 72 43.2 clipbox
72 360.176 m
127.8 323.213 l
183.6 303.147 l
239.4 253.528 l
295.2 175.595 l
stroke
grestore
0.000 0.750 0.750 setrgbcolor
gsave
446.4 345.6 72 43.2 clipbox
72 359.303 m
127.8 322.098 l
183.6 301.37 l
239.4 258.839 l
295.2 194.366 l
351 72.0574 l
stroke
grestore
0.750 0.000 0.750 setrgbcolor
gsave
446.4 345.6 72 43.2 clipbox
72 359.616 m
127.8 323.173 l
183.6 305.662 l
239.4 261.197 l
295.2 214.518 l
351 76.5811 l
stroke
grestore
0.750 0.750 0.000 setrgbcolor
gsave
446.4 345.6 72 43.2 clipbox
72 360.373 m
127.8 328.949 l
183.6 305.126 l
239.4 259.755 l
295.2 187.273 l
351 53.9599 l
stroke
grestore
0.000 setgray
gsave
446.4 345.6 72 43.2 clipbox
72 360.135 m
127.8 324.838 l
183.6 308.492 l
239.4 264.552 l
295.2 202.968 l
351 83.5994 l
stroke
grestore
0.000 0.000 1.000 setrgbcolor
gsave
446.4 345.6 72 43.2 clipbox
72 359.706 m
127.8 325.576 l
183.6 306.876 l
239.4 266.738 l
295.2 188.245 l
351 55.2476 l
stroke
grestore
0.000 0.500 0.000 setrgbcolor
gsave
446.4 345.6 72 43.2 clipbox
72 360.161 m
127.8 324.889 l
183.6 308.753 l
239.4 263.021 l
295.2 197.925 l
351 74.3536 l
stroke
grestore
1.000 0.000 0.000 setrgbcolor
gsave
446.4 345.6 72 43.2 clipbox
72 359.418 m
127.8 324.952 l
183.6 305.131 l
239.4 261.968 l
295.2 194.431 l
351 70.2024 l
stroke
grestore
0.000 0.750 0.750 setrgbcolor
gsave
446.4 345.6 72 43.2 clipbox
72 359.528 m
127.8 326.026 l
183.6 309.597 l
239.4 267.519 l
295.2 204.627 l
351 86.8395 l
stroke
grestore
0.750 0.000 0.750 setrgbcolor
gsave
446.4 345.6 72 43.2 clipbox
72 359.309 m
127.8 325.74 l
183.6 307.131 l
239.4 265.252 l
295.2 202.061 l
351 81.6668 l
stroke
grestore
0.750 0.750 0.000 setrgbcolor
gsave
446.4 345.6 72 43.2 clipbox
72 359.129 m
127.8 323.266 l
183.6 307.767 l
239.4 265.721 l
295.2 205.263 l
351 92.1725 l
stroke
grestore
0.000 setgray
gsave
446.4 345.6 72 43.2 clipbox
72 358.55 m
127.8 322.21 l
183.6 303.119 l
239.4 260.386 l
295.2 192.605 l
351 65.2998 l
stroke
grestore
0.000 0.000 1.000 setrgbcolor
gsave
446.4 345.6 72 43.2 clipbox
72 359.201 m
127.8 323.561 l
183.6 307.509 l
239.4 257.552 l
295.2 180.366 l
351 54.233 l
stroke
grestore
0.000 0.500 0.000 setrgbcolor
gsave
446.4 345.6 72 43.2 clipbox
72 358.363 m
127.8 320.571 l
183.6 303.162 l
239.4 254.857 l
295.2 185.401 l
351 50.3501 l
stroke
grestore
1.000 0.000 0.000 setrgbcolor
gsave
446.4 345.6 72 43.2 clipbox
72 358.539 m
127.8 319.356 l
183.6 303.413 l
239.4 264.556 l
295.2 197.399 l
351 73.7563 l
stroke
grestore
0.000 0.750 0.750 setrgbcolor
gsave
446.4 345.6 72 43.2 clipbox
72 359.455 m
127.8 322.811 l
183.6 309.684 l
239.4 269.295 l
295.2 210.817 l
351 99.5304 l
stroke
grestore
0.750 0.000 0.750 setrgbcolor
gsave
446.4 345.6 72 43.2 clipbox
72 358.442 m
127.8 321.667 l
183.6 306.688 l
239.4 267.279 l
295.2 198.443 l
351 71.9421 l
stroke
grestore
0.750 0.750 0.000 setrgbcolor
gsave
446.4 345.6 72 43.2 clipbox
72 358.137 m
127.8 321.181 l
183.6 308.359 l
239.4 260.498 l
295.2 189.543 l
351 74.0291 l
stroke
grestore
0.000 setgray
gsave
446.4 345.6 72 43.2 clipbox
72 357.92 m
127.8 319.041 l
183.6 300.52 l
239.4 257.047 l
295.2 186.259 l
351 54.2424 l
stroke
grestore
0.000 0.000 1.000 setrgbcolor
gsave
446.4 345.6 72 43.2 clipbox
72 357.955 m
127.8 319.931 l
183.6 302.463 l
239.4 257.619 l
295.2 186.917 l
351 55.5477 l
stroke
grestore
0.000 0.500 0.000 setrgbcolor
gsave
446.4 345.6 72 43.2 clipbox
72 358.059 m
127.8 319.895 l
183.6 304.109 l
239.4 262.362 l
295.2 200.335 l
351 77.4503 l
stroke
grestore
1.000 0.000 0.000 setrgbcolor
gsave
446.4 345.6 72 43.2 clipbox
72 358.08 m
127.8 321.174 l
183.6 302.64 l
239.4 260.577 l
295.2 193.325 l
351 67.0668 l
stroke
grestore
0.000 0.750 0.750 setrgbcolor
gsave
446.4 345.6 72 43.2 clipbox
72 357.856 m
127.8 320.866 l
183.6 304.574 l
239.4 258.018 l
295.2 188.261 l
351 60.1826 l
stroke
grestore
0.750 0.000 0.750 setrgbcolor
gsave
446.4 345.6 72 43.2 clipbox
72 358.02 m
127.8 321.215 l
183.6 305.711 l
239.4 265.738 l
295.2 192.655 l
351 60.5985 l
stroke
grestore
0.750 0.750 0.000 setrgbcolor
gsave
446.4 345.6 72 43.2 clipbox
72 357.89 m
127.8 321.805 l
183.6 305.776 l
239.4 262.915 l
295.2 200.481 l
351 76.9073 l
stroke
grestore
0.000 setgray
gsave
446.4 345.6 72 43.2 clipbox
72 357.662 m
127.8 321.315 l
183.6 302.436 l
239.4 259.897 l
295.2 211.04 l
351 109.498 l
stroke
grestore
0.000 0.000 1.000 setrgbcolor
gsave
446.4 345.6 72 43.2 clipbox
72 357.419 m
127.8 321.156 l
183.6 305.755 l
239.4 262.152 l
295.2 202.174 l
351 85.0103 l
stroke
grestore
0.000 0.500 0.000 setrgbcolor
gsave
446.4 345.6 72 43.2 clipbox
72 357.45 m
127.8 322.349 l
183.6 305.873 l
239.4 267.381 l
295.2 216.448 l
351 81.6778 l
stroke
grestore
1.000 0.000 0.000 setrgbcolor
gsave
446.4 345.6 72 43.2 clipbox
72 357.144 m
127.8 320.984 l
183.6 304.22 l
239.4 259.117 l
295.2 187.6 l
351 54.1875 l
stroke
grestore
0.000 0.750 0.750 setrgbcolor
gsave
446.4 345.6 72 43.2 clipbox
72 357.209 m
127.8 320.89 l
183.6 300.303 l
239.4 255.221 l
295.2 170.116 l
stroke
grestore
0.750 0.000 0.750 setrgbcolor
gsave
446.4 345.6 72 43.2 clipbox
72 356.953 m
127.8 321.755 l
183.6 301.187 l
239.4 260.901 l
295.2 193.135 l
351 66.6485 l
stroke
grestore
0.750 0.750 0.000 setrgbcolor
gsave
446.4 345.6 72 43.2 clipbox
72 356.732 m
127.8 320.03 l
183.6 304.487 l
239.4 261.148 l
295.2 196.177 l
351 77.8428 l
stroke
grestore
0.000 setgray
gsave
446.4 345.6 72 43.2 clipbox
72 356.327 m
127.8 318.014 l
183.6 301.623 l
239.4 268.094 l
295.2 192.485 l
351 61.6844 l
stroke
grestore
0.000 0.000 1.000 setrgbcolor
gsave
446.4 345.6 72 43.2 clipbox
72 356.476 m
127.8 319.219 l
183.6 300.701 l
239.4 250.201 l
295.2 207.349 l
351 100.943 l
stroke
grestore
0.000 0.500 0.000 setrgbcolor
gsave
446.4 345.6 72 43.2 clipbox
72 356.441 m
127.8 318.189 l
183.6 295.022 l
239.4 256.442 l
295.2 177.734 l
351 50.8979 l
stroke
grestore
1.000 0.000 0.000 setrgbcolor
gsave
446.4 345.6 72 43.2 clipbox
72 356.818 m
127.8 320.12 l
183.6 307.157 l
239.4 263.173 l
295.2 195.256 l
351 84.6397 l
stroke
grestore
0.000 0.750 0.750 setrgbcolor
gsave
446.4 345.6 72 43.2 clipbox
72 355.94 m
127.8 319.637 l
183.6 303.67 l
239.4 267.024 l
295.2 185.597 l
351 65.1154 l
stroke
grestore
0.750 0.000 0.750 setrgbcolor
gsave
446.4 345.6 72 43.2 clipbox
72 356.108 m
127.8 320.102 l
183.6 304.5 l
239.4 271.605 l
295.2 192.146 l
351 66.1031 l
stroke
grestore
0.750 0.750 0.000 setrgbcolor
gsave
446.4 345.6 72 43.2 clipbox
72 356.32 m
127.8 319.893 l
183.6 304.824 l
239.4 265.624 l
295.2 199.581 l
351 79.0709 l
stroke
grestore
0.000 setgray
gsave
446.4 345.6 72 43.2 clipbox
72 355.85 m
127.8 318.513 l
183.6 301.959 l
239.4 271.107 l
295.2 183.63 l
351 78.6018 l
stroke
grestore
0.000 0.000 1.000 setrgbcolor
gsave
446.4 345.6 72 43.2 clipbox
72 355.738 m
127.8 319.432 l
183.6 307.905 l
239.4 270.163 l
295.2 203.77 l
351 83.2145 l
stroke
grestore
0.000 0.500 0.000 setrgbcolor
gsave
446.4 345.6 72 43.2 clipbox
72 355.87 m
127.8 320.252 l
183.6 305.879 l
239.4 263.749 l
295.2 196.846 l
351 69.5668 l
stroke
grestore
1.000 0.000 0.000 setrgbcolor
gsave
446.4 345.6 72 43.2 clipbox
72 355.329 m
127.8 319.036 l
183.6 303.94 l
239.4 264.359 l
295.2 201.152 l
351 73.3198 l
stroke
grestore
0.000 0.750 0.750 setrgbcolor
gsave
446.4 345.6 72 43.2 clipbox
72 354.789 m
127.8 317.584 l
183.6 300.801 l
239.4 255.425 l
295.2 181.814 l
351 51.5739 l
stroke
grestore
0.750 0.000 0.750 setrgbcolor
gsave
446.4 345.6 72 43.2 clipbox
72 355.411 m
127.8 319.451 l
183.6 304.626 l
239.4 261.234 l
295.2 193.249 l
351 61.4015 l
stroke
grestore
0.750 0.750 0.000 setrgbcolor
gsave
446.4 345.6 72 43.2 clipbox
72 354.376 m
127.8 316.721 l
183.6 301.965 l
239.4 264.083 l
295.2 193.351 l
351 65.7525 l
stroke
grestore
0.000 setgray
gsave
446.4 345.6 72 43.2 clipbox
72 353.977 m
127.8 316.341 l
183.6 301.553 l
239.4 265.081 l
295.2 191.978 l
351 63.0482 l
stroke
grestore
0.000 0.000 1.000 setrgbcolor
gsave
446.4 345.6 72 43.2 clipbox
72 354.344 m
127.8 318.149 l
183.6 305.433 l
239.4 264.781 l
295.2 199.985 l
351 76.2325 l
stroke
grestore
0.000 0.500 0.000 setrgbcolor
gsave
446.4 345.6 72 43.2 clipbox
72 354.036 m
127.8 319.5 l
183.6 304.433 l
239.4 257.357 l
295.2 181.162 l
351 51.7704 l
stroke
grestore
1.000 0.000 0.000 setrgbcolor
gsave
446.4 345.6 72 43.2 clipbox
72 353.75 m
127.8 318.119 l
183.6 306.087 l
239.4 266.581 l
295.2 203.867 l
351 76.3784 l
stroke
grestore
0.000 0.750 0.750 setrgbcolor
gsave
446.4 345.6 72 43.2 clipbox
72 353.432 m
127.8 316.707 l
183.6 300.542 l
239.4 257.369 l
295.2 180.691 l
351 51.816 l
stroke
grestore
0.750 0.000 0.750 setrgbcolor
gsave
446.4 345.6 72 43.2 clipbox
72 353.402 m
127.8 314.71 l
183.6 293.688 l
239.4 245.076 l
295.2 163.043 l
stroke
grestore
0.750 0.750 0.000 setrgbcolor
gsave
446.4 345.6 72 43.2 clipbox
72 353.158 m
127.8 315.031 l
183.6 299.698 l
239.4 258.449 l
295.2 188.273 l
351 53.7861 l
stroke
grestore
0.000 setgray
gsave
446.4 345.6 72 43.2 clipbox
72 353.432 m
127.8 318.195 l
183.6 304.364 l
239.4 261.441 l
295.2 192.269 l
351 58.5861 l
stroke
grestore
0.000 0.000 1.000 setrgbcolor
gsave
446.4 345.6 72 43.2 clipbox
72 352.603 m
127.8 316.875 l
183.6 301.179 l
239.4 259.764 l
295.2 192.041 l
351 60.0876 l
stroke
grestore
0.000 0.500 0.000 setrgbcolor
gsave
446.4 345.6 72 43.2 clipbox
72 352.431 m
127.8 316.296 l
183.6 300.188 l
239.4 259.831 l
295.2 190.302 l
351 62.0852 l
stroke
grestore
1.000 0.000 0.000 setrgbcolor
gsave
446.4 345.6 72 43.2 clipbox
72 352.163 m
127.8 316.12 l
183.6 298.767 l
239.4 258.451 l
295.2 182.248 l
351 52.1463 l
stroke
grestore
0.000 0.750 0.750 setrgbcolor
gsave
446.4 345.6 72 43.2 clipbox
72 352.001 m
127.8 315.006 l
183.6 301.497 l
239.4 260.786 l
295.2 203.036 l
351 92.2727 l
stroke
grestore
0.750 0.000 0.750 setrgbcolor
gsave
446.4 345.6 72 43.2 clipbox
72 351.997 m
127.8 313.358 l
183.6 297.728 l
239.4 250.347 l
295.2 176.954 l
351 52.8823 l
stroke
grestore
0.750 0.750 0.000 setrgbcolor
gsave
446.4 345.6 72 43.2 clipbox
72 351.697 m
127.8 313.699 l
183.6 297.339 l
239.4 253.014 l
295.2 176.64 l
351 51.9334 l
stroke
grestore
0.000 setgray
gsave
446.4 345.6 72 43.2 clipbox
72 351.348 m
127.8 314.432 l
183.6 297.721 l
239.4 254.262 l
295.2 182.487 l
351 54.9213 l
stroke
grestore
0.000 0.000 1.000 setrgbcolor
gsave
446.4 345.6 72 43.2 clipbox
72 351.974 m
127.8 316.683 l
183.6 299.3 l
239.4 254.917 l
295.2 184.16 l
351 53.3323 l
stroke
grestore
0.000 0.500 0.000 setrgbcolor
gsave
446.4 345.6 72 43.2 clipbox
72 351.163 m
127.8 313.424 l
183.6 293.95 l
239.4 248.778 l
295.2 202.587 l
351 68.7021 l
stroke
grestore
1.000 0.000 0.000 setrgbcolor
gsave
446.4 345.6 72 43.2 clipbox
72 351.322 m
127.8 316.834 l
183.6 298.665 l
239.4 256.296 l
295.2 187.233 l
351 58.3673 l
stroke
grestore
0.000 0.750 0.750 setrgbcolor
gsave
446.4 345.6 72 43.2 clipbox
72 351.523 m
127.8 314.203 l
183.6 291.537 l
239.4 248.316 l
295.2 167.713 l
stroke
grestore
0.750 0.000 0.750 setrgbcolor
gsave
446.4 345.6 72 43.2 clipbox
72 351.168 m
127.8 312.198 l
183.6 290.933 l
239.4 247.988 l
295.2 174.158 l
stroke
grestore
0.750 0.750 0.000 setrgbcolor
gsave
446.4 345.6 72 43.2 clipbox
72 350.263 m
127.8 312.356 l
183.6 291.079 l
239.4 252.557 l
295.2 189.969 l
351 53.1676 l
stroke
grestore
0.000 setgray
gsave
446.4 345.6 72 43.2 clipbox
72 350.651 m
127.8 310.281 l
183.6 289.762 l
239.4 243.94 l
295.2 179.363 l
351 53.9813 l
stroke
grestore
0.000 0.000 1.000 setrgbcolor
gsave
446.4 345.6 72 43.2 clipbox
72 349.232 m
127.8 309.188 l
183.6 286.432 l
239.4 231.293 l
295.2 137.336 l
stroke
grestore
0.000 0.500 0.000 setrgbcolor
gsave
446.4 345.6 72 43.2 clipbox
72 353.009 m
127.8 304.985 l
183.6 280.287 l
239.4 222.634 l
295.2 129.601 l
stroke
grestore
1.000 0.000 0.000 setrgbcolor
gsave
446.4 345.6 72 43.2 clipbox
72 358.697 m
127.8 320.096 l
183.6 312.257 l
239.4 275.405 l
295.2 221.703 l
351 116.719 l
stroke
grestore
0.000 0.750 0.750 setrgbcolor
gsave
446.4 345.6 72 43.2 clipbox
72 362.582 m
127.8 329.47 l
183.6 319.505 l
239.4 276.662 l
295.2 229.368 l
351 145.009 l
stroke
grestore
0.750 0.000 0.750 setrgbcolor
gsave
446.4 345.6 72 43.2 clipbox
72 366.224 m
127.8 338.814 l
183.6 321.833 l
239.4 291.214 l
295.2 254.037 l
351 184.859 l
406.8 83.1329 l
stroke
grestore
0.750 0.750 0.000 setrgbcolor
gsave
446.4 345.6 72 43.2 clipbox
72 365.529 m
127.8 337.583 l
183.6 317.5 l
239.4 274.588 l
295.2 229.209 l
351 141.717 l
stroke
grestore
0.000 setgray
gsave
446.4 345.6 72 43.2 clipbox
72 365.56 m
127.8 337.926 l
183.6 323.526 l
239.4 280.68 l
295.2 233.306 l
351 142.964 l
stroke
grestore
0.000 0.000 1.000 setrgbcolor
gsave
446.4 345.6 72 43.2 clipbox
72 365.462 m
127.8 337.851 l
183.6 319.209 l
239.4 287.203 l
295.2 250.778 l
351 183.093 l
406.8 75.521 l
stroke
grestore
0.000 0.500 0.000 setrgbcolor
gsave
446.4 345.6 72 43.2 clipbox
72 365.479 m
127.8 337.194 l
183.6 321.864 l
239.4 286.538 l
295.2 252.864 l
351 188.825 l
406.8 76.3487 l
stroke
grestore
1.000 0.000 0.000 setrgbcolor
gsave
446.4 345.6 72 43.2 clipbox
72 365.895 m
127.8 338.722 l
183.6 314.174 l
239.4 289.709 l
295.2 257.746 l
351 197.333 l
406.8 81.032 l
stroke
grestore
0.000 0.750 0.750 setrgbcolor
gsave
446.4 345.6 72 43.2 clipbox
72 365.664 m
127.8 338.709 l
183.6 326.24 l
239.4 294.238 l
295.2 257.538 l
351 186.544 l
406.8 76.5337 l
stroke
grestore
0.750 0.000 0.750 setrgbcolor
gsave
446.4 345.6 72 43.2 clipbox
72 365.589 m
127.8 338.468 l
183.6 325.767 l
239.4 295.502 l
295.2 264.398 l
351 192.246 l
406.8 76.9668 l
stroke
grestore
0.750 0.750 0.000 setrgbcolor
gsave
446.4 345.6 72 43.2 clipbox
72 365.614 m
127.8 338.305 l
183.6 305.138 l
239.4 262.109 l
295.2 201.319 l
351 91.9136 l
stroke
grestore
0.000 setgray
gsave
446.4 345.6 72 43.2 clipbox
72 365.484 m
127.8 338.714 l
183.6 301.437 l
239.4 268.35 l
295.2 217.005 l
351 115.39 l
stroke
grestore
0.000 0.000 1.000 setrgbcolor
gsave
446.4 345.6 72 43.2 clipbox
72 365.916 m
127.8 338.304 l
183.6 307.045 l
239.4 271.601 l
295.2 226.907 l
351 132.761 l
stroke
grestore
0.000 0.500 0.000 setrgbcolor
gsave
446.4 345.6 72 43.2 clipbox
72 365.584 m
127.8 337.922 l
183.6 309.262 l
239.4 274.226 l
295.2 227.152 l
351 136.335 l
stroke
grestore
1.000 0.000 0.000 setrgbcolor
gsave
446.4 345.6 72 43.2 clipbox
72 365.944 m
127.8 339.22 l
183.6 308.817 l
239.4 287.026 l
295.2 231.269 l
351 143.849 l
stroke
grestore
0.000 0.750 0.750 setrgbcolor
gsave
446.4 345.6 72 43.2 clipbox
72 365.58 m
127.8 337.963 l
183.6 315.678 l
239.4 277.115 l
295.2 229.718 l
351 201.993 l
406.8 81.403 l
stroke
grestore
0.750 0.000 0.750 setrgbcolor
gsave
446.4 345.6 72 43.2 clipbox
72 365.691 m
127.8 338.406 l
183.6 317.279 l
239.4 283.657 l
295.2 246.759 l
351 178.203 l
406.8 79.5213 l
stroke
grestore
0.750 0.750 0.000 setrgbcolor
gsave
446.4 345.6 72 43.2 clipbox
72 365.727 m
127.8 340.668 l
183.6 311.953 l
239.4 274.589 l
295.2 226.146 l
351 134.93 l
stroke
grestore
0.000 setgray
gsave
446.4 345.6 72 43.2 clipbox
72 365.565 m
127.8 337.116 l
183.6 318.003 l
239.4 278.313 l
295.2 231.47 l
351 140.626 l
stroke
grestore
0.000 0.000 1.000 setrgbcolor
gsave
446.4 345.6 72 43.2 clipbox
72 365.892 m
127.8 341.901 l
183.6 318.335 l
239.4 284.722 l
295.2 244.713 l
351 167.426 l
stroke
grestore
0.000 0.500 0.000 setrgbcolor
gsave
446.4 345.6 72 43.2 clipbox
72 365.776 m
127.8 339.228 l
183.6 317.942 l
239.4 280.693 l
295.2 238.757 l
351 158.523 l
stroke
grestore
1.000 0.000 0.000 setrgbcolor
gsave
446.4 345.6 72 43.2 clipbox
72 365.584 m
127.8 337.921 l
183.6 324.626 l
239.4 292.001 l
295.2 268.153 l
351 239.742 l
406.8 146.628 l
stroke
grestore
0.000 0.750 0.750 setrgbcolor
gsave
446.4 345.6 72 43.2 clipbox
72 365.641 m
127.8 338.076 l
183.6 336.352 l
239.4 282.481 l
295.2 223.637 l
351 108.356 l
stroke
grestore
0.750 0.000 0.750 setrgbcolor
gsave
446.4 345.6 72 43.2 clipbox
72 365.68 m
127.8 337.419 l
183.6 294.687 l
239.4 262.683 l
295.2 212.724 l
351 113.473 l
stroke
grestore
0.750 0.750 0.000 setrgbcolor
gsave
446.4 345.6 72 43.2 clipbox
72 365.408 m
127.8 336.674 l
183.6 297.883 l
239.4 254.006 l
295.2 193.063 l
351 84.2086 l
stroke
grestore
0.000 setgray
gsave
446.4 345.6 72 43.2 clipbox
72 365.057 m
127.8 335.914 l
183.6 283.993 l
239.4 246.129 l
295.2 187.193 l
351 84.1152 l
stroke
grestore
0.000 0.000 1.000 setrgbcolor
gsave
446.4 345.6 72 43.2 clipbox
72 364.894 m
127.8 335.71 l
183.6 293.725 l
239.4 250.313 l
295.2 188.074 l
351 84.1939 l
stroke
grestore
0.000 0.500 0.000 setrgbcolor
gsave
446.4 345.6 72 43.2 clipbox
72 364.678 m
127.8 338.289 l
183.6 287.726 l
239.4 250.717 l
295.2 190.371 l
351 109.473 l
stroke
grestore
1.000 0.000 0.000 setrgbcolor
gsave
446.4 345.6 72 43.2 clipbox
72 364.109 m
127.8 334.068 l
183.6 288.79 l
239.4 245.523 l
295.2 180.464 l
351 85.5907 l
stroke
grestore
0.000 0.750 0.750 setrgbcolor
gsave
446.4 345.6 72 43.2 clipbox
72 363.887 m
127.8 334.633 l
183.6 295.965 l
239.4 260.506 l
295.2 207.122 l
351 102.605 l
stroke
grestore
0.750 0.000 0.750 setrgbcolor
gsave
446.4 345.6 72 43.2 clipbox
72 363.677 m
127.8 333.86 l
183.6 297.397 l
239.4 262.993 l
295.2 214.134 l
351 119.316 l
stroke
grestore
0.750 0.750 0.000 setrgbcolor
gsave
446.4 345.6 72 43.2 clipbox
72 362.97 m
127.8 333.073 l
183.6 290.413 l
239.4 250.261 l
295.2 192.055 l
351 118.184 l
stroke
grestore
0.000 setgray
gsave
446.4 345.6 72 43.2 clipbox
72 362.532 m
127.8 332.658 l
183.6 292.204 l
239.4 244.434 l
295.2 182.167 l
351 123.558 l
stroke
grestore
0.000 0.000 1.000 setrgbcolor
gsave
446.4 345.6 72 43.2 clipbox
72 362.025 m
127.8 349.989 l
183.6 297.38 l
239.4 285.391 l
295.2 255.278 l
351 228.79 l
406.8 197.399 l
462.6 126.218 l
stroke
grestore
0.000 0.500 0.000 setrgbcolor
gsave
446.4 345.6 72 43.2 clipbox
72 360.748 m
127.8 331.609 l
183.6 302.251 l
239.4 269.942 l
295.2 226.965 l
351 142.964 l
stroke
grestore
1.000 0.000 0.000 setrgbcolor
gsave
446.4 345.6 72 43.2 clipbox
72 359.037 m
127.8 328.863 l
183.6 292.305 l
239.4 250.266 l
295.2 194.023 l
351 92.5776 l
stroke
grestore
0.000 0.750 0.750 setrgbcolor
gsave
446.4 345.6 72 43.2 clipbox
72 358.212 m
127.8 331.686 l
183.6 287.496 l
239.4 264.417 l
295.2 256.657 l
351 207.929 l
406.8 171.315 l
stroke
grestore
0.750 0.000 0.750 setrgbcolor
gsave
446.4 345.6 72 43.2 clipbox
72 356.983 m
127.8 324.189 l
183.6 293.54 l
239.4 249.692 l
295.2 231.24 l
351 202.066 l
406.8 93.0696 l
stroke
grestore
0.750 0.750 0.000 setrgbcolor
gsave
446.4 345.6 72 43.2 clipbox
72 355.712 m
127.8 323.782 l
183.6 299.696 l
239.4 272.128 l
295.2 227.505 l
351 176.93 l
406.8 111.333 l
stroke
grestore
0.000 setgray
gsave
446.4 345.6 72 43.2 clipbox
72 354.122 m
127.8 356.608 l
183.6 290.419 l
239.4 285.022 l
295.2 269.47 l
351 254.972 l
406.8 235.016 l
462.6 200.322 l
518.4 153.527 l
stroke
grestore
0.000 0.000 1.000 setrgbcolor
gsave
446.4 345.6 72 43.2 clipbox
72 352.384 m
127.8 346.969 l
183.6 305.952 l
239.4 292.068 l
295.2 250.718 l
351 234.051 l
406.8 204.001 l
462.6 160.268 l
stroke
grestore
0.000 0.500 0.000 setrgbcolor
gsave
446.4 345.6 72 43.2 clipbox
72 350.512 m
127.8 329.63 l
183.6 274.807 l
239.4 241.638 l
295.2 192.485 l
351 135.628 l
stroke
grestore
1.000 0.000 0.000 setrgbcolor
gsave
446.4 345.6 72 43.2 clipbox
72 349.063 m
127.8 322.367 l
183.6 308.797 l
239.4 278.553 l
295.2 239.569 l
351 163.743 l
stroke
grestore
0.000 0.750 0.750 setrgbcolor
gsave
446.4 345.6 72 43.2 clipbox
72 348.108 m
127.8 319.236 l
183.6 297.441 l
239.4 246.795 l
295.2 196.673 l
351 128.453 l
stroke
grestore
0.750 0.000 0.750 setrgbcolor
gsave
446.4 345.6 72 43.2 clipbox
72 346.605 m
127.8 326.753 l
183.6 362.431 l
239.4 355.6 l
295.2 328.388 l
351 242.123 l
406.8 170.643 l
stroke
grestore
0 setlinejoin
0.000 setgray
gsave
72 388.8 m
518.4 388.8 l
stroke
grestore
gsave
518.4 43.2 m
518.4 388.8 l
stroke
grestore
gsave
72 43.2 m
518.4 43.2 l
stroke
grestore
gsave
72 43.2 m
72 388.8 l
stroke
grestore
0.500 setlinewidth
1 setlinejoin
0 setlinecap
gsave
/o {
gsave
newpath
translate
0.5 setlinewidth
1 setlinejoin
0 setlinecap
0 0 m
0 4 l
gsave
0.000 setgray
fill
grestore
stroke
grestore
} bind def
72 43.2 o
grestore
gsave
/o {
gsave
newpath
translate
0.5 setlinewidth
1 setlinejoin
0 setlinecap
0 0 m
0 -4 l
gsave
0.000 setgray
fill
grestore
stroke
grestore
} bind def
72 388.8 o
grestore
/BitstreamVeraSans-Roman findfont
12.000 scalefont
setfont
gsave
68.976562 30.075000 translate
0.000000 rotate
0.000000 0.000000 m /zero glyphshow
grestore
gsave
/o {
gsave
newpath
translate
0.5 setlinewidth
1 setlinejoin
0 setlinecap
0 0 m
0 4 l
gsave
0.000 setgray
fill
grestore
stroke
grestore
} bind def
127.8 43.2 o
grestore
gsave
/o {
gsave
newpath
translate
0.5 setlinewidth
1 setlinejoin
0 setlinecap
0 0 m
0 -4 l
gsave
0.000 setgray
fill
grestore
stroke
grestore
} bind def
127.8 388.8 o
grestore
gsave
125.190625 30.075000 translate
0.000000 rotate
0.000000 0.000000 m /one glyphshow
grestore
gsave
/o {
gsave
newpath
translate
0.5 setlinewidth
1 setlinejoin
0 setlinecap
0 0 m
0 4 l
gsave
0.000 setgray
fill
grestore
stroke
grestore
} bind def
183.6 43.2 o
grestore
gsave
/o {
gsave
newpath
translate
0.5 setlinewidth
1 setlinejoin
0 setlinecap
0 0 m
0 -4 l
gsave
0.000 setgray
fill
grestore
stroke
grestore
} bind def
183.6 388.8 o
grestore
gsave
180.818750 30.075000 translate
0.000000 rotate
0.000000 0.000000 m /two glyphshow
grestore
gsave
/o {
gsave
newpath
translate
0.5 setlinewidth
1 setlinejoin
0 setlinecap
0 0 m
0 4 l
gsave
0.000 setgray
fill
grestore
stroke
grestore
} bind def
239.4 43.2 o
grestore
gsave
/o {
gsave
newpath
translate
0.5 setlinewidth
1 setlinejoin
0 setlinecap
0 0 m
0 -4 l
gsave
0.000 setgray
fill
grestore
stroke
grestore
} bind def
239.4 388.8 o
grestore
gsave
236.525000 30.075000 translate
0.000000 rotate
0.000000 0.000000 m /three glyphshow
grestore
gsave
/o {
gsave
newpath
translate
0.5 setlinewidth
1 setlinejoin
0 setlinecap
0 0 m
0 4 l
gsave
0.000 setgray
fill
grestore
stroke
grestore
} bind def
295.2 43.2 o
grestore
gsave
/o {
gsave
newpath
translate
0.5 setlinewidth
1 setlinejoin
0 setlinecap
0 0 m
0 -4 l
gsave
0.000 setgray
fill
grestore
stroke
grestore
} bind def
295.2 388.8 o
grestore
gsave
292.012500 30.075000 translate
0.000000 rotate
0.000000 0.000000 m /four glyphshow
grestore
gsave
/o {
gsave
newpath
translate
0.5 setlinewidth
1 setlinejoin
0 setlinecap
0 0 m
0 4 l
gsave
0.000 setgray
fill
grestore
stroke
grestore
} bind def
351 43.2 o
grestore
gsave
/o {
gsave
newpath
translate
0.5 setlinewidth
1 setlinejoin
0 setlinecap
0 0 m
0 -4 l
gsave
0.000 setgray
fill
grestore
stroke
grestore
} bind def
351 388.8 o
grestore
gsave
348.164062 30.075000 translate
0.000000 rotate
0.000000 0.000000 m /five glyphshow
grestore
gsave
/o {
gsave
newpath
translate
0.5 setlinewidth
1 setlinejoin
0 setlinecap
0 0 m
0 4 l
gsave
0.000 setgray
fill
grestore
stroke
grestore
} bind def
406.8 43.2 o
grestore
gsave
/o {
gsave
newpath
translate
0.5 setlinewidth
1 setlinejoin
0 setlinecap
0 0 m
0 -4 l
gsave
0.000 setgray
fill
grestore
stroke
grestore
} bind def
406.8 388.8 o
grestore
gsave
403.784375 30.075000 translate
0.000000 rotate
0.000000 0.000000 m /six glyphshow
grestore
gsave
/o {
gsave
newpath
translate
0.5 setlinewidth
1 setlinejoin
0 setlinecap
0 0 m
0 4 l
gsave
0.000 setgray
fill
grestore
stroke
grestore
} bind def
462.6 43.2 o
grestore
gsave
/o {
gsave
newpath
translate
0.5 setlinewidth
1 setlinejoin
0 setlinecap
0 0 m
0 -4 l
gsave
0.000 setgray
fill
grestore
stroke
grestore
} bind def
462.6 388.8 o
grestore
gsave
459.787500 30.075000 translate
0.000000 rotate
0.000000 0.000000 m /seven glyphshow
grestore
gsave
/o {
gsave
newpath
translate
0.5 setlinewidth
1 setlinejoin
0 setlinecap
0 0 m
0 4 l
gsave
0.000 setgray
fill
grestore
stroke
grestore
} bind def
518.4 43.2 o
grestore
gsave
/o {
gsave
newpath
translate
0.5 setlinewidth
1 setlinejoin
0 setlinecap
0 0 m
0 -4 l
gsave
0.000 setgray
fill
grestore
stroke
grestore
} bind def
518.4 388.8 o
grestore
gsave
515.400000 30.075000 translate
0.000000 rotate
0.000000 0.000000 m /eight glyphshow
grestore
/BitstreamVeraSans-Roman findfont
20.000 scalefont
setfont
gsave
212.418750 7.371875 translate
0.000000 rotate
0.000000 0.000000 m /N glyphshow
14.960938 0.000000 m /e glyphshow
27.265625 0.000000 m /w glyphshow
43.623047 0.000000 m /t glyphshow
51.464844 0.000000 m /o glyphshow
63.701172 0.000000 m /n glyphshow
76.376953 0.000000 m /space glyphshow
82.734375 0.000000 m /i glyphshow
88.291016 0.000000 m /t glyphshow
96.132812 0.000000 m /e glyphshow
108.437500 0.000000 m /r glyphshow
116.660156 0.000000 m /a glyphshow
128.916016 0.000000 m /t glyphshow
136.757812 0.000000 m /i glyphshow
142.314453 0.000000 m /o glyphshow
154.550781 0.000000 m /n glyphshow
grestore
gsave
/o {
gsave
newpath
translate
0.5 setlinewidth
1 setlinejoin
0 setlinecap
0 0 m
4 0 l
gsave
0.000 setgray
fill
grestore
stroke
grestore
} bind def
72 43.2 o
grestore
gsave
/o {
gsave
newpath
translate
0.5 setlinewidth
1 setlinejoin
0 setlinecap
0 0 m
-4 0 l
gsave
0.000 setgray
fill
grestore
stroke
grestore
} bind def
518.4 43.2 o
grestore
gsave
41.000000 38.700000 translate
0.000000 rotate
/BitstreamVeraSans-Roman findfont
12.0 scalefont
setfont
0.000000 0.465625 moveto
/one glyphshow

7.634766 0.465625 moveto
/zero glyphshow

/BitstreamVeraSans-Roman findfont
8.4 scalefont
setfont
15.269531 6.765625 moveto
/hyphen glyphshow

18.300586 6.765625 moveto
/eight glyphshow


grestore
gsave
/o {
gsave
newpath
translate
0.5 setlinewidth
1 setlinejoin
0 setlinecap
0 0 m
4 0 l
gsave
0.000 setgray
fill
grestore
stroke
grestore
} bind def
72 69.7846 o
grestore
gsave
/o {
gsave
newpath
translate
0.5 setlinewidth
1 setlinejoin
0 setlinecap
0 0 m
-4 0 l
gsave
0.000 setgray
fill
grestore
stroke
grestore
} bind def
518.4 69.7846 o
grestore
gsave
41.000000 65.284615 translate
0.000000 rotate
/BitstreamVeraSans-Roman findfont
12.0 scalefont
setfont
0.000000 0.575000 moveto
/one glyphshow

7.634766 0.575000 moveto
/zero glyphshow

/BitstreamVeraSans-Roman findfont
8.4 scalefont
setfont
15.269531 6.875000 moveto
/hyphen glyphshow

18.300586 6.875000 moveto
/seven glyphshow


grestore
gsave
/o {
gsave
newpath
translate
0.5 setlinewidth
1 setlinejoin
0 setlinecap
0 0 m
4 0 l
gsave
0.000 setgray
fill
grestore
stroke
grestore
} bind def
72 96.3692 o
grestore
gsave
/o {
gsave
newpath
translate
0.5 setlinewidth
1 setlinejoin
0 setlinecap
0 0 m
-4 0 l
gsave
0.000 setgray
fill
grestore
stroke
grestore
} bind def
518.4 96.3692 o
grestore
gsave
41.000000 91.869231 translate
0.000000 rotate
/BitstreamVeraSans-Roman findfont
12.0 scalefont
setfont
0.000000 0.465625 moveto
/one glyphshow

7.634766 0.465625 moveto
/zero glyphshow

/BitstreamVeraSans-Roman findfont
8.4 scalefont
setfont
15.269531 6.765625 moveto
/hyphen glyphshow

18.300586 6.765625 moveto
/six glyphshow


grestore
gsave
/o {
gsave
newpath
translate
0.5 setlinewidth
1 setlinejoin
0 setlinecap
0 0 m
4 0 l
gsave
0.000 setgray
fill
grestore
stroke
grestore
} bind def
72 122.954 o
grestore
gsave
/o {
gsave
newpath
translate
0.5 setlinewidth
1 setlinejoin
0 setlinecap
0 0 m
-4 0 l
gsave
0.000 setgray
fill
grestore
stroke
grestore
} bind def
518.4 122.954 o
grestore
gsave
41.000000 118.453846 translate
0.000000 rotate
/BitstreamVeraSans-Roman findfont
12.0 scalefont
setfont
0.000000 0.575000 moveto
/one glyphshow

7.634766 0.575000 moveto
/zero glyphshow

/BitstreamVeraSans-Roman findfont
8.4 scalefont
setfont
15.269531 6.875000 moveto
/hyphen glyphshow

18.300586 6.875000 moveto
/five glyphshow


grestore
gsave
/o {
gsave
newpath
translate
0.5 setlinewidth
1 setlinejoin
0 setlinecap
0 0 m
4 0 l
gsave
0.000 setgray
fill
grestore
stroke
grestore
} bind def
72 149.538 o
grestore
gsave
/o {
gsave
newpath
translate
0.5 setlinewidth
1 setlinejoin
0 setlinecap
0 0 m
-4 0 l
gsave
0.000 setgray
fill
grestore
stroke
grestore
} bind def
518.4 149.538 o
grestore
gsave
41.000000 145.038462 translate
0.000000 rotate
/BitstreamVeraSans-Roman findfont
12.0 scalefont
setfont
0.000000 0.575000 moveto
/one glyphshow

7.634766 0.575000 moveto
/zero glyphshow

/BitstreamVeraSans-Roman findfont
8.4 scalefont
setfont
15.269531 6.875000 moveto
/hyphen glyphshow

18.300586 6.875000 moveto
/four glyphshow


grestore
gsave
/o {
gsave
newpath
translate
0.5 setlinewidth
1 setlinejoin
0 setlinecap
0 0 m
4 0 l
gsave
0.000 setgray
fill
grestore
stroke
grestore
} bind def
72 176.123 o
grestore
gsave
/o {
gsave
newpath
translate
0.5 setlinewidth
1 setlinejoin
0 setlinecap
0 0 m
-4 0 l
gsave
0.000 setgray
fill
grestore
stroke
grestore
} bind def
518.4 176.123 o
grestore
gsave
41.000000 171.623077 translate
0.000000 rotate
/BitstreamVeraSans-Roman findfont
12.0 scalefont
setfont
0.000000 0.465625 moveto
/one glyphshow

7.634766 0.465625 moveto
/zero glyphshow

/BitstreamVeraSans-Roman findfont
8.4 scalefont
setfont
15.269531 6.765625 moveto
/hyphen glyphshow

18.300586 6.765625 moveto
/three glyphshow


grestore
gsave
/o {
gsave
newpath
translate
0.5 setlinewidth
1 setlinejoin
0 setlinecap
0 0 m
4 0 l
gsave
0.000 setgray
fill
grestore
stroke
grestore
} bind def
72 202.708 o
grestore
gsave
/o {
gsave
newpath
translate
0.5 setlinewidth
1 setlinejoin
0 setlinecap
0 0 m
-4 0 l
gsave
0.000 setgray
fill
grestore
stroke
grestore
} bind def
518.4 202.708 o
grestore
gsave
41.000000 198.207692 translate
0.000000 rotate
/BitstreamVeraSans-Roman findfont
12.0 scalefont
setfont
0.000000 0.465625 moveto
/one glyphshow

7.634766 0.465625 moveto
/zero glyphshow

/BitstreamVeraSans-Roman findfont
8.4 scalefont
setfont
15.269531 6.765625 moveto
/hyphen glyphshow

18.300586 6.765625 moveto
/two glyphshow


grestore
gsave
/o {
gsave
newpath
translate
0.5 setlinewidth
1 setlinejoin
0 setlinecap
0 0 m
4 0 l
gsave
0.000 setgray
fill
grestore
stroke
grestore
} bind def
72 229.292 o
grestore
gsave
/o {
gsave
newpath
translate
0.5 setlinewidth
1 setlinejoin
0 setlinecap
0 0 m
-4 0 l
gsave
0.000 setgray
fill
grestore
stroke
grestore
} bind def
518.4 229.292 o
grestore
gsave
41.000000 224.792308 translate
0.000000 rotate
/BitstreamVeraSans-Roman findfont
12.0 scalefont
setfont
0.000000 0.575000 moveto
/one glyphshow

7.634766 0.575000 moveto
/zero glyphshow

/BitstreamVeraSans-Roman findfont
8.4 scalefont
setfont
15.269531 6.875000 moveto
/hyphen glyphshow

18.300586 6.875000 moveto
/one glyphshow


grestore
gsave
/o {
gsave
newpath
translate
0.5 setlinewidth
1 setlinejoin
0 setlinecap
0 0 m
4 0 l
gsave
0.000 setgray
fill
grestore
stroke
grestore
} bind def
72 255.877 o
grestore
gsave
/o {
gsave
newpath
translate
0.5 setlinewidth
1 setlinejoin
0 setlinecap
0 0 m
-4 0 l
gsave
0.000 setgray
fill
grestore
stroke
grestore
} bind def
518.4 255.877 o
grestore
gsave
44.000000 251.376923 translate
0.000000 rotate
/BitstreamVeraSans-Roman findfont
12.0 scalefont
setfont
0.000000 0.465625 moveto
/one glyphshow

7.634766 0.465625 moveto
/zero glyphshow

/BitstreamVeraSans-Roman findfont
8.4 scalefont
setfont
15.269531 6.765625 moveto
/zero glyphshow


grestore
gsave
/o {
gsave
newpath
translate
0.5 setlinewidth
1 setlinejoin
0 setlinecap
0 0 m
4 0 l
gsave
0.000 setgray
fill
grestore
stroke
grestore
} bind def
72 282.462 o
grestore
gsave
/o {
gsave
newpath
translate
0.5 setlinewidth
1 setlinejoin
0 setlinecap
0 0 m
-4 0 l
gsave
0.000 setgray
fill
grestore
stroke
grestore
} bind def
518.4 282.462 o
grestore
gsave
44.000000 277.961538 translate
0.000000 rotate
/BitstreamVeraSans-Roman findfont
12.0 scalefont
setfont
0.000000 0.575000 moveto
/one glyphshow

7.634766 0.575000 moveto
/zero glyphshow

/BitstreamVeraSans-Roman findfont
8.4 scalefont
setfont
15.269531 6.875000 moveto
/one glyphshow


grestore
gsave
/o {
gsave
newpath
translate
0.5 setlinewidth
1 setlinejoin
0 setlinecap
0 0 m
4 0 l
gsave
0.000 setgray
fill
grestore
stroke
grestore
} bind def
72 309.046 o
grestore
gsave
/o {
gsave
newpath
translate
0.5 setlinewidth
1 setlinejoin
0 setlinecap
0 0 m
-4 0 l
gsave
0.000 setgray
fill
grestore
stroke
grestore
} bind def
518.4 309.046 o
grestore
gsave
44.000000 304.546154 translate
0.000000 rotate
/BitstreamVeraSans-Roman findfont
12.0 scalefont
setfont
0.000000 0.465625 moveto
/one glyphshow

7.634766 0.465625 moveto
/zero glyphshow

/BitstreamVeraSans-Roman findfont
8.4 scalefont
setfont
15.269531 6.765625 moveto
/two glyphshow


grestore
gsave
/o {
gsave
newpath
translate
0.5 setlinewidth
1 setlinejoin
0 setlinecap
0 0 m
4 0 l
gsave
0.000 setgray
fill
grestore
stroke
grestore
} bind def
72 335.631 o
grestore
gsave
/o {
gsave
newpath
translate
0.5 setlinewidth
1 setlinejoin
0 setlinecap
0 0 m
-4 0 l
gsave
0.000 setgray
fill
grestore
stroke
grestore
} bind def
518.4 335.631 o
grestore
gsave
44.000000 331.130769 translate
0.000000 rotate
/BitstreamVeraSans-Roman findfont
12.0 scalefont
setfont
0.000000 0.465625 moveto
/one glyphshow

7.634766 0.465625 moveto
/zero glyphshow

/BitstreamVeraSans-Roman findfont
8.4 scalefont
setfont
15.269531 6.765625 moveto
/three glyphshow


grestore
gsave
/o {
gsave
newpath
translate
0.5 setlinewidth
1 setlinejoin
0 setlinecap
0 0 m
4 0 l
gsave
0.000 setgray
fill
grestore
stroke
grestore
} bind def
72 362.215 o
grestore
gsave
/o {
gsave
newpath
translate
0.5 setlinewidth
1 setlinejoin
0 setlinecap
0 0 m
-4 0 l
gsave
0.000 setgray
fill
grestore
stroke
grestore
} bind def
518.4 362.215 o
grestore
gsave
44.000000 357.715385 translate
0.000000 rotate
/BitstreamVeraSans-Roman findfont
12.0 scalefont
setfont
0.000000 0.575000 moveto
/one glyphshow

7.634766 0.575000 moveto
/zero glyphshow

/BitstreamVeraSans-Roman findfont
8.4 scalefont
setfont
15.269531 6.875000 moveto
/four glyphshow


grestore
gsave
/o {
gsave
newpath
translate
0.5 setlinewidth
1 setlinejoin
0 setlinecap
0 0 m
4 0 l
gsave
0.000 setgray
fill
grestore
stroke
grestore
} bind def
72 388.8 o
grestore
gsave
/o {
gsave
newpath
translate
0.5 setlinewidth
1 setlinejoin
0 setlinecap
0 0 m
-4 0 l
gsave
0.000 setgray
fill
grestore
stroke
grestore
} bind def
518.4 388.8 o
grestore
gsave
44.000000 384.300000 translate
0.000000 rotate
/BitstreamVeraSans-Roman findfont
12.0 scalefont
setfont
0.000000 0.575000 moveto
/one glyphshow

7.634766 0.575000 moveto
/zero glyphshow

/BitstreamVeraSans-Roman findfont
8.4 scalefont
setfont
15.269531 6.875000 moveto
/five glyphshow


grestore
gsave
/o {
gsave
newpath
translate
0.5 setlinewidth
1 setlinejoin
0 setlinecap
0 0 m
2 0 l
gsave
0.000 setgray
fill
grestore
stroke
grestore
} bind def
72 43.2 o
grestore
gsave
/o {
gsave
newpath
translate
0.5 setlinewidth
1 setlinejoin
0 setlinecap
0 0 m
-2 0 l
gsave
0.000 setgray
fill
grestore
stroke
grestore
} bind def
518.4 43.2 o
grestore
gsave
/o {
gsave
newpath
translate
0.5 setlinewidth
1 setlinejoin
0 setlinecap
0 0 m
2 0 l
gsave
0.000 setgray
fill
grestore
stroke
grestore
} bind def
72 69.7846 o
grestore
gsave
/o {
gsave
newpath
translate
0.5 setlinewidth
1 setlinejoin
0 setlinecap
0 0 m
-2 0 l
gsave
0.000 setgray
fill
grestore
stroke
grestore
} bind def
518.4 69.7846 o
grestore
gsave
/o {
gsave
newpath
translate
0.5 setlinewidth
1 setlinejoin
0 setlinecap
0 0 m
2 0 l
gsave
0.000 setgray
fill
grestore
stroke
grestore
} bind def
72 96.3692 o
grestore
gsave
/o {
gsave
newpath
translate
0.5 setlinewidth
1 setlinejoin
0 setlinecap
0 0 m
-2 0 l
gsave
0.000 setgray
fill
grestore
stroke
grestore
} bind def
518.4 96.3692 o
grestore
gsave
/o {
gsave
newpath
translate
0.5 setlinewidth
1 setlinejoin
0 setlinecap
0 0 m
2 0 l
gsave
0.000 setgray
fill
grestore
stroke
grestore
} bind def
72 122.954 o
grestore
gsave
/o {
gsave
newpath
translate
0.5 setlinewidth
1 setlinejoin
0 setlinecap
0 0 m
-2 0 l
gsave
0.000 setgray
fill
grestore
stroke
grestore
} bind def
518.4 122.954 o
grestore
gsave
/o {
gsave
newpath
translate
0.5 setlinewidth
1 setlinejoin
0 setlinecap
0 0 m
2 0 l
gsave
0.000 setgray
fill
grestore
stroke
grestore
} bind def
72 149.538 o
grestore
gsave
/o {
gsave
newpath
translate
0.5 setlinewidth
1 setlinejoin
0 setlinecap
0 0 m
-2 0 l
gsave
0.000 setgray
fill
grestore
stroke
grestore
} bind def
518.4 149.538 o
grestore
gsave
/o {
gsave
newpath
translate
0.5 setlinewidth
1 setlinejoin
0 setlinecap
0 0 m
2 0 l
gsave
0.000 setgray
fill
grestore
stroke
grestore
} bind def
72 176.123 o
grestore
gsave
/o {
gsave
newpath
translate
0.5 setlinewidth
1 setlinejoin
0 setlinecap
0 0 m
-2 0 l
gsave
0.000 setgray
fill
grestore
stroke
grestore
} bind def
518.4 176.123 o
grestore
gsave
/o {
gsave
newpath
translate
0.5 setlinewidth
1 setlinejoin
0 setlinecap
0 0 m
2 0 l
gsave
0.000 setgray
fill
grestore
stroke
grestore
} bind def
72 202.708 o
grestore
gsave
/o {
gsave
newpath
translate
0.5 setlinewidth
1 setlinejoin
0 setlinecap
0 0 m
-2 0 l
gsave
0.000 setgray
fill
grestore
stroke
grestore
} bind def
518.4 202.708 o
grestore
gsave
/o {
gsave
newpath
translate
0.5 setlinewidth
1 setlinejoin
0 setlinecap
0 0 m
2 0 l
gsave
0.000 setgray
fill
grestore
stroke
grestore
} bind def
72 229.292 o
grestore
gsave
/o {
gsave
newpath
translate
0.5 setlinewidth
1 setlinejoin
0 setlinecap
0 0 m
-2 0 l
gsave
0.000 setgray
fill
grestore
stroke
grestore
} bind def
518.4 229.292 o
grestore
gsave
/o {
gsave
newpath
translate
0.5 setlinewidth
1 setlinejoin
0 setlinecap
0 0 m
2 0 l
gsave
0.000 setgray
fill
grestore
stroke
grestore
} bind def
72 255.877 o
grestore
gsave
/o {
gsave
newpath
translate
0.5 setlinewidth
1 setlinejoin
0 setlinecap
0 0 m
-2 0 l
gsave
0.000 setgray
fill
grestore
stroke
grestore
} bind def
518.4 255.877 o
grestore
gsave
/o {
gsave
newpath
translate
0.5 setlinewidth
1 setlinejoin
0 setlinecap
0 0 m
2 0 l
gsave
0.000 setgray
fill
grestore
stroke
grestore
} bind def
72 282.462 o
grestore
gsave
/o {
gsave
newpath
translate
0.5 setlinewidth
1 setlinejoin
0 setlinecap
0 0 m
-2 0 l
gsave
0.000 setgray
fill
grestore
stroke
grestore
} bind def
518.4 282.462 o
grestore
gsave
/o {
gsave
newpath
translate
0.5 setlinewidth
1 setlinejoin
0 setlinecap
0 0 m
2 0 l
gsave
0.000 setgray
fill
grestore
stroke
grestore
} bind def
72 309.046 o
grestore
gsave
/o {
gsave
newpath
translate
0.5 setlinewidth
1 setlinejoin
0 setlinecap
0 0 m
-2 0 l
gsave
0.000 setgray
fill
grestore
stroke
grestore
} bind def
518.4 309.046 o
grestore
gsave
/o {
gsave
newpath
translate
0.5 setlinewidth
1 setlinejoin
0 setlinecap
0 0 m
2 0 l
gsave
0.000 setgray
fill
grestore
stroke
grestore
} bind def
72 335.631 o
grestore
gsave
/o {
gsave
newpath
translate
0.5 setlinewidth
1 setlinejoin
0 setlinecap
0 0 m
-2 0 l
gsave
0.000 setgray
fill
grestore
stroke
grestore
} bind def
518.4 335.631 o
grestore
gsave
/o {
gsave
newpath
translate
0.5 setlinewidth
1 setlinejoin
0 setlinecap
0 0 m
2 0 l
gsave
0.000 setgray
fill
grestore
stroke
grestore
} bind def
72 362.215 o
grestore
gsave
/o {
gsave
newpath
translate
0.5 setlinewidth
1 setlinejoin
0 setlinecap
0 0 m
-2 0 l
gsave
0.000 setgray
fill
grestore
stroke
grestore
} bind def
518.4 362.215 o
grestore
gsave
/o {
gsave
newpath
translate
0.5 setlinewidth
1 setlinejoin
0 setlinecap
0 0 m
2 0 l
gsave
0.000 setgray
fill
grestore
stroke
grestore
} bind def
72 388.8 o
grestore
gsave
/o {
gsave
newpath
translate
0.5 setlinewidth
1 setlinejoin
0 setlinecap
0 0 m
-2 0 l
gsave
0.000 setgray
fill
grestore
stroke
grestore
} bind def
518.4 388.8 o
grestore
gsave
31.843750 145.304688 translate
90.000000 rotate
0.000000 0.000000 m /R glyphshow
13.021484 0.000000 m /e glyphshow
25.326172 0.000000 m /s glyphshow
35.746094 0.000000 m /i glyphshow
41.302734 0.000000 m /d glyphshow
53.998047 0.000000 m /u glyphshow
66.673828 0.000000 m /a glyphshow
78.929688 0.000000 m /l glyphshow
84.486328 0.000000 m /space glyphshow
90.843750 0.000000 m /n glyphshow
103.519531 0.000000 m /o glyphshow
115.755859 0.000000 m /r glyphshow
123.603516 0.000000 m /m glyphshow
grestore

end
showpage
