0.000000000000000000e+00,1.000000000000000000e+00,0.000000000000000000e+00,0.000000000000000000e+00,0.000000000000000000e+00
6.444596243224329918e-03,9.993236937433240819e-01,3.181825640395928578e-02,2.325106479513693168e-06,2.818410866648857165e-14
1.518823118009935899e-02,9.979645039428434172e-01,7.400081282774571834e-02,9.796695026809541687e-06,1.030837576188763605e-11
2.476470798123423314e-02,9.964041632571973839e-01,1.192334514295192438e-01,2.339234247584027159e-05,4.189139378924190506e-10
3.532856632637254579e-02,9.946877494241116446e-01,1.680028477360050732e-01,4.526294028276828783e-05,1.554031205592179997e-09
4.711429384861031550e-02,9.927896141039818101e-01,2.209899826295771974e-01,7.861212293138036540e-05,1.831008066326947661e-09
6.044618527119351853e-02,9.906506867591505783e-01,2.790349566445600171e-01,1.283808648988226601e-04,2.298043012670306547e-09
7.472168361532245673e-02,9.883524652513030473e-01,3.388994532795192027e-01,1.962847944132168970e-04,2.968211446749446624e-09
8.942911228280056579e-02,9.859625546263059981e-01,3.979970559260951335e-01,2.827231374144796670e-04,3.814050384542161358e-09
1.045894944997225184e-01,9.834667770469814885e-01,4.560016367451741881e-01,3.905101513011570956e-04,4.802036687627540159e-09
1.202446766016381230e-01,9.808486285791702119e-01,5.125978632773329213e-01,5.231873592350837817e-04,5.901644123413551930e-09
1.365060234980891574e-01,9.780820822638032208e-01,5.676139352753234446e-01,6.858995995112870904e-04,7.127190208622335631e-09
1.520736305941055855e-01,9.753915971278668273e-01,6.166469352136645377e-01,8.663873200268665904e-04,8.368375571983586057e-09
1.666625993459189270e-01,9.728376141020842471e-01,6.592694580161819751e-01,1.059080313562635713e-03,9.586063641576917645e-09
1.803126577544187925e-01,9.704273410477601836e-01,6.961409826161643055e-01,1.261776781750828828e-03,1.076424618134131045e-08
1.932837700895722322e-01,9.681268461300998052e-01,7.284005844589174217e-01,1.476447275062705775e-03,1.191820559081654549e-08
2.060849971129543878e-01,9.658604036488859235e-01,7.575064609245755198e-01,1.712002870199753847e-03,1.309052546494421023e-08
2.192024150655127734e-01,9.635594955237455350e-01,7.844581603839995143e-01,1.981309043516148258e-03,1.433090308442803873e-08
2.322595573228679600e-01,9.609813098524401243e-01,8.083578636364658898e-01,2.279521025435459793e-03,1.561477947125002959e-08
2.434146845830494621e-01,9.584939465505364353e-01,8.266646532940610248e-01,2.559716037350372436e-03,1.676759736308086036e-08
2.540931683943646879e-01,9.558109691429469423e-01,8.422246772149872829e-01,2.853628084445229435e-03,1.793264654146294832e-08
2.647452760714645303e-01,9.527981340230362584e-01,8.555782028902200187e-01,3.174223768686837595e-03,1.913463588558781417e-08
2.742869857684639978e-01,9.498057453815977880e-01,8.656240543256208397e-01,3.484582891543105791e-03,2.023412519871029765e-08
2.833079163907332165e-01,9.466951896320697779e-01,8.733398369730386301e-01,3.799449954370486601e-03,2.128524753718030227e-08
2.920194381803686290e-01,9.434067907033863998e-01,8.790690357627061191e-01,4.125951648831648229e-03,2.230223775027309431e-08
3.006939394668641796e-01,9.398300623626203443e-01,8.830344733834255555e-01,4.475619638853959442e-03,2.330930733398223474e-08
3.100917339879332157e-01,9.355706065110422909e-01,8.852740652274988520e-01,4.885720746433987183e-03,2.438741829998689210e-08
3.207733514847567191e-01,9.301717853777017320e-01,8.851540275611609054e-01,5.397421542742742578e-03,2.560378196553797700e-08
3.309420037012354987e-01,9.244686266526281893e-01,8.825608381156145876e-01,5.936059994966171559e-03,2.676398535962629959e-08
3.405678451179053323e-01,9.184920970492885806e-01,8.776846811538467907e-01,6.502476349575780738e-03,2.786500246060742668e-08
3.504317448375628419e-01,9.116249753625522700e-01,8.699137705686211808e-01,7.160115531551906540e-03,2.898962622052619588e-08
3.592087497322763445e-01,9.047704449577772534e-01,8.603884511678270286e-01,7.829379694139583512e-03,2.998329661746044911e-08
3.644285958875960740e-01,9.003555920324681772e-01,8.535742436486459805e-01,8.266956796709197530e-03,3.056503067400832840e-08
3.693559244937316133e-01,8.958093687951459438e-01,8.459285059405908802e-01,8.725834130910452638e-03,3.110532076298328638e-08
3.754515253050602630e-01,8.894090940747069185e-01,8.340741849447669276e-01,9.394699575723381574e-03,3.174141178997150880e-08
3.801930219269683553e-01,8.837157961143901064e-01,8.227782419300772032e-01,1.001851397765909403e-02,3.219823672264156378e-08
3.843842576153912449e-01,8.778318592647343932e-01,8.105073136844577197e-01,1.076853818190501993e-02,3.257326268068017037e-08
3.884904452525848040e-01,8.703305592034177307e-01,7.948769413748664192e-01,1.185549341886371622e-02,3.287129538126919833e-08
3.910399576332210803e-01,8.638698888852167634e-01,7.810517648731160056e-01,1.287076844363751506e-02,3.297882378230063160e-08
3.925087442276286032e-01,8.577503731989097879e-01,7.675282626073386405e-01,1.386497431977273993e-02,3.294088968337176705e-08
3.929791305893209352e-01,8.523147635956215273e-01,7.551521440932627005e-01,1.475318541547919991e-02,3.276064407502551682e-08
3.926404205862154551e-01,8.471661064207028913e-01,7.430877036515399769e-01,1.559253120637861013e-02,3.254371863245244254e-08
3.910968121313561641e-01,8.409526541128651278e-01,7.282458775253776162e-01,1.661097495979461935e-02,3.226996961767747241e-08
3.875301092939161807e-01,8.336787555567020114e-01,7.107410973675103438e-01,1.781009785274730722e-02,3.193117091060237070e-08
3.821660074022608655e-01,8.266207717841848046e-01,6.937651270286369076e-01,1.898644477067048045e-02,3.158446554386559430e-08
3.714905261069645914e-01,8.174587538240304374e-01,6.716692943397576387e-01,2.055476912186903968e-02,3.110203873524516693e-08
3.570994154785828711e-01,8.085944700848080036e-01,6.518473767557744214e-01,2.212209073657555453e-02,3.059937209945962878e-08
3.397098652896211601e-01,8.003785708913006003e-01,6.472010819531920367e-01,2.362578168970843814e-02,3.008908325853357557e-08
3.194909006317779299e-01,7.927269410254058624e-01,6.825339170895844410e-01,2.507673727086471779e-02,2.956073985081902437e-08
2.964602955287574115e-01,7.855491338615298025e-01,7.448152147831916814e-01,2.651345008075024073e-02,2.899666022731589510e-08
2.692644603000322601e-01,7.785112527353234002e-01,8.203294339535732727e-01,2.805010748679021698e-02,2.833932297875796241e-08
2.404381488562887803e-01,7.722410362036200571e-01,8.843342964468051681e-01,2.959044882137270432e-02,2.761466087996630981e-08
2.130350338860858561e-01,7.671484245206037222e-01,9.018844749888996759e-01,3.105861553466858146e-02,2.687316461634514980e-08
1.869059335964000090e-01,7.629728416326754248e-01,9.054356112144157365e-01,3.249811638477715509e-02,2.616269136505668641e-08
1.601794545962874905e-01,7.593020900364939596e-01,9.033148418980653238e-01,3.405848100128744393e-02,2.541053254589098767e-08
1.371354208229149940e-01,7.557695505819114201e-01,8.961323924009445552e-01,3.553181667875453947e-02,2.471309243511519410e-08
1.178128581801998198e-01,7.524463927886183567e-01,8.877748138875979356e-01,3.690715118327395766e-02,2.407064878393887376e-08
1.000290072984341833e-01,7.489977769023495879e-01,8.785763586931113478e-01,3.836270374402862837e-02,2.339941113419658981e-08
8.479161202812247888e-02,7.455771504506011338e-01,8.696162437564929348e-01,3.980782516178809488e-02,2.274074010146029455e-08
7.189878846070893448e-02,7.422928398799080174e-01,8.610650589847143044e-01,4.122449067715876214e-02,2.210259635518008524e-08
6.080433259404869478e-02,7.391614068892009559e-01,8.526122664053218392e-01,4.263926870830613003e-02,2.147247125767001649e-08
5.170396334524797466e-02,7.363350721828695322e-01,8.446836636797719899e-01,4.398419645836255942e-02,2.088185300049798004e-08
4.362638051559910440e-02,7.335205826457417144e-01,8.368208121160944923e-01,4.538034479717144992e-02,2.027890210530986363e-08
3.550102943270824069e-02,7.302002599898930191e-01,8.283686163746944997e-01,4.706088787080833780e-02,1.956048064591343625e-08
2.917594994675676290e-02,7.271419425663619984e-01,8.230393441732792859e-01,4.857426163217136439e-02,1.890325188532425404e-08
2.391138628439719999e-02,7.241451562788238094e-01,8.292241560076422102e-01,4.997739289629467285e-02,1.825885055512241463e-08
2.013572051578865763e-02,7.217179972381639885e-01,8.397749581936844177e-01,5.103990129683639437e-02,1.772616421579269316e-08
1.634401968633535443e-02,7.189097387188808641e-01,8.529780882201516423e-01,5.219557364657780724e-02,1.709104598920254884e-08
1.251375158472215789e-02,7.151807231345311822e-01,8.690020774425020189e-01,5.362997749406814285e-02,1.629231282334288636e-08
9.399924599767246758e-03,7.110589719799007558e-01,8.837836162828879294e-01,5.512702623110203592e-02,1.547060935163503869e-08
6.967696618234040136e-03,7.065857321534018132e-01,8.964425774083280007e-01,5.666291182598783005e-02,1.464908595806684511e-08
5.175450052660028957e-03,7.019989867253106919e-01,9.061656834052529419e-01,5.815512912892970010e-02,1.387548039747593556e-08
3.704576300921096858e-03,6.964612238395767596e-01,9.148928648696456056e-01,5.983873410281712740e-02,1.303886204629526486e-08
2.763329826211628325e-03,6.914226885503670372e-01,9.214293091685686887e-01,6.127154626776960128e-02,1.235556248194718458e-08
2.029731400216002596e-03,6.859608207814359426e-01,9.269817029730048619e-01,6.279275505450214456e-02,1.166501187468437993e-08
1.543996579370397098e-03,6.813546247213133622e-01,9.308728546568549866e-01,6.412313822436339905e-02,1.109737263315182204e-08
1.068403509685871087e-03,6.753873413869061482e-01,9.360539203367016503e-01,6.603764617018120786e-02,1.036947311335655186e-08
7.539148873799587447e-04,6.704355022647904283e-01,9.410885979043949190e-01,6.788383131164643647e-02,9.746959363803059293e-09
5.302505999938526837e-04,6.663914337615849393e-01,9.464230255520329482e-01,6.983032756175046318e-02,9.173306571996965640e-09
3.687664912229143138e-04,6.639739926081347221e-01,9.523437068316376042e-01,7.196164382553070504e-02,8.633025931877602158e-09
2.535982549762665073e-04,6.646894634904662036e-01,9.592085901090486866e-01,7.432394276093448604e-02,8.124902325253387602e-09
1.768247371089772760e-04,6.686667506715837650e-01,9.661708890974313180e-01,7.673580788653575069e-02,7.688243380857509269e-09
1.246630288221075786e-04,6.744271521521104651e-01,9.723452895779529648e-01,7.919301239747081333e-02,7.318044436970163169e-09
8.896481407985186679e-05,6.807342658179336148e-01,9.772622012089084986e-01,8.166898192959544389e-02,7.009282958424436793e-09
6.335956601470475215e-05,6.872481723648422580e-01,9.811119641554909565e-01,8.430511391592629411e-02,6.738765235631385986e-09
4.194338668516036078e-05,6.952657074404275939e-01,9.844960499455041036e-01,8.794161592844207398e-02,6.452888817542358463e-09
3.007245918410727484e-05,7.011566165494171887e-01,9.864266826443555125e-01,9.098617754129162405e-02,6.263771383725290728e-09
2.239925307987656109e-05,7.059923047934294482e-01,9.877030961178300261e-01,9.383380452841422192e-02,6.124997623185124286e-09
1.545850424829570306e-05,7.117952004188249360e-01,9.889109611958202262e-01,9.794905090058035613e-02,5.985532431500851370e-09
1.146085589230259523e-05,7.159318662330261818e-01,9.896554855520943716e-01,1.014162050939552279e-01,5.901872309881524743e-09
8.691500439368711885e-06,7.193383851448322819e-01,9.902226470080274234e-01,1.048212802592957127e-01,5.845947015937211455e-09
6.670899965333313107e-06,7.221983042469644065e-01,9.906892092108262604e-01,1.082220346176565179e-01,5.811678559433781771e-09
5.179387346619810814e-06,7.245532822184138633e-01,9.910879485447517956e-01,1.113814320841063771e-01,5.796003894205023931e-09
4.056013033811822587e-06,7.264401749656003160e-01,9.914395236505034736e-01,1.145320756559440739e-01,5.797997788293984980e-09
3.179857122490832653e-06,7.279739984112029161e-01,9.917657521619627214e-01,1.178719517561160474e-01,5.818024620470145926e-09
2.244486191834037612e-06,7.293700783817756994e-01,9.922133648583072452e-01,1.232770412681673949e-01,5.886928331978020314e-09
1.600129835083792581e-06,7.299007293885256820e-01,9.926000004956774259e-01,1.286809357946833710e-01,5.986955294982354586e-09
1.166874412195307940e-06,7.299524379067414692e-01,9.929148214231126035e-01,1.336134906495883012e-01,6.104747360182458944e-09
8.762301854477694502e-07,7.298105071610218042e-01,9.931627715439760307e-01,1.378283553558128927e-01,6.223685044498069073e-09
5.871920820004224984e-07,7.292121261605921667e-01,9.934863223903953600e-01,1.438536895288657080e-01,6.433022642262638782e-09
4.066181999862492202e-07,7.285955335785007092e-01,9.937757580817387915e-01,1.495872910851433757e-01,6.672427214672202784e-09
2.960697645840374966e-07,7.281609078932556045e-01,9.940370176890612752e-01,1.550219678602581530e-01,6.935957006148306499e-09
2.252105392222609286e-07,7.279310691816393009e-01,9.942797013676057949e-01,1.602820212514462772e-01,7.227838024543252707e-09
1.768455339970562407e-07,7.275361630576399063e-01,9.944839958259712454e-01,1.654936420485698390e-01,7.557241006796829109e-09
1.417233883228017242e-07,7.268604437599875956e-01,9.946464647292053707e-01,1.707620228256256367e-01,8.206814072574203694e-09
1.122853479105030094e-07,7.261076926617825444e-01,9.947951393691717437e-01,1.766947516805973672e-01,9.638498668920761562e-09
8.862071571499151731e-08,7.249872357872527706e-01,9.949216340637644374e-01,1.830898547374600893e-01,1.207897051817245068e-08
7.145818074452578247e-08,7.234366439145629712e-01,9.950088051789177657e-01,1.892850587021812636e-01,1.535352284047785477e-08
5.789240880508962027e-08,7.214446700257354239e-01,9.950673970061598705e-01,1.955254453339202725e-01,1.956141954773607234e-08
4.585078530771504489e-08,7.193534335759771414e-01,9.951073557908839406e-01,2.013153395391414635e-01,2.422892595068558399e-08
3.750343090486330098e-08,7.175429807976027030e-01,9.951350583614859691e-01,2.060833904460436239e-01,2.859825441733450354e-08
3.155336865328395726e-08,7.158235879185433914e-01,9.951563955147145757e-01,2.103834214415017112e-01,3.296576240528440286e-08
2.691293395910116600e-08,7.139795572644221933e-01,9.951718617224383223e-01,2.146036208478150631e-01,3.765675815756774884e-08
2.284870828581465616e-08,7.118543828233768744e-01,9.951826454837975344e-01,2.192311410742791566e-01,4.327035237378451840e-08
1.833442838472385162e-08,7.088025698682001163e-01,9.951959278369300055e-01,2.259533555924466142e-01,5.233981379455102484e-08
1.482803380061756115e-08,7.051863980277336408e-01,9.952109839250240508e-01,2.336195836753280075e-01,6.391250353273490861e-08
1.256170655411322195e-08,7.015221834452937122e-01,9.952216985895748769e-01,2.410411326022136314e-01,7.629203322073642186e-08
1.089816721282057959e-08,6.973773587481267855e-01,9.952283802868132634e-01,2.490461750732863300e-01,9.100222300395618466e-08
9.626778014182207961e-09,6.924584183874509247e-01,9.952318452505835022e-01,2.580952782956066338e-01,1.093489464651295592e-07
8.680161944544024357e-09,6.861091988426814003e-01,9.952350633898870980e-01,2.692711318783633234e-01,1.346626805035361229e-07
8.165137120865203814e-09,6.801663763647821659e-01,9.952429054407910813e-01,2.795300229656688673e-01,1.604630930748131714e-07
8.013178162964024610e-09,6.751671916874505408e-01,9.952726074797860756e-01,2.888201529964181113e-01,1.866492260264021677e-07
7.929275889473249561e-09,6.708534011176642275e-01,9.953269113900942155e-01,2.977845754855164562e-01,2.151849959000268085e-07
7.725310080415092070e-09,6.666838156869581145e-01,9.953723718964442302e-01,3.064471566159601146e-01,2.488257977958348735e-07
7.454332285215926801e-09,6.624090727117702970e-01,9.953983326769464401e-01,3.150533535078069436e-01,3.017364717136988547e-07
7.038447694940615461e-09,6.578715871873955789e-01,9.954101930942683696e-01,3.238958415737208107e-01,3.751026410043572585e-07
6.544126027982634409e-09,6.483047667225823041e-01,9.954022193657849904e-01,3.413716826125830495e-01,5.921181309640600023e-07
6.255245683826416406e-09,6.385147848592691577e-01,9.953872266525944923e-01,3.582779660223724960e-01,8.893655772093976341e-07
6.070779501186777785e-09,6.281060428491116454e-01,9.953735467963560346e-01,3.753879398014383639e-01,1.292399135530131496e-06
5.953711528361419831e-09,6.171005319873933415e-01,9.953652918779261061e-01,3.927778682092950557e-01,1.756327232509494258e-06
5.873124995350567520e-09,6.056079678863094395e-01,9.953657607302024424e-01,4.104893366814257871e-01,2.200801029023508540e-06
5.818619622817454793e-09,5.948530519542599704e-01,9.953758586417521537e-01,4.269553695436848484e-01,2.564319707429355679e-06
5.771964372447139622e-09,5.832200786274390758e-01,9.954053521834708151e-01,4.453258901958891958e-01,2.909515776835018526e-06
5.718291038956169814e-09,5.741468418879721591e-01,9.954840884584749139e-01,4.628029988794188365e-01,3.192498681360261019e-06
5.658156702907050590e-09,5.713537547589931931e-01,9.956234712901212980e-01,4.742020622593594026e-01,3.360988157359789751e-06
5.608911062568976056e-09,5.718923539701115111e-01,9.958950101422205936e-01,4.881991295280766474e-01,3.550430393157516317e-06
5.570943411573381781e-09,5.765118758873887250e-01,9.961342090794820248e-01,5.059072106554164394e-01,3.773804678363225098e-06
5.550191413767010821e-09,5.811451331690069555e-01,9.961803222803502500e-01,5.214734662426777634e-01,3.965845865693068657e-06
5.538198044847920405e-09,5.845724015655248129e-01,9.961540567294683290e-01,5.326700601420454317e-01,4.105586249734093502e-06
5.528157624842727461e-09,5.878329792442690271e-01,9.961021966605229094e-01,5.432003939095940703e-01,4.243117495831850430e-06
5.518943984804510171e-09,5.910388143574213382e-01,9.960420653145227732e-01,5.534863136000200967e-01,4.388943733305734591e-06
5.510202556136461133e-09,5.941943458532614741e-01,9.959827034881856278e-01,5.635899373325194972e-01,4.564459974684755784e-06
5.501768714626140709e-09,5.973522591929567582e-01,9.959290080341807183e-01,5.735651597350269748e-01,4.791939149064509444e-06
5.508981269775041829e-09,6.014051238387416731e-01,9.958973853032320189e-01,5.836131610636683398e-01,5.093357303817562162e-06
5.512695674989041165e-09,6.087805605190464986e-01,9.958545255030663013e-01,6.005183688418870291e-01,5.824370641076939600e-06
5.504747305197782120e-09,6.158812261430895996e-01,9.958049150270454897e-01,6.165235247219609249e-01,6.687118313107579685e-06
5.489697698838462506e-09,6.241675114743726605e-01,9.957470027860199080e-01,6.351006297987282778e-01,7.851449801263689441e-06
5.466146655438532571e-09,6.366598392472649914e-01,9.956736205061236245e-01,6.608299289379355734e-01,9.941822221291559195e-06
5.448655501395252578e-09,6.456531187157463769e-01,9.956301682066688308e-01,6.773920614865033274e-01,1.160258146069808365e-05
5.431653429203489727e-09,6.541770864759106630e-01,9.955971875989465536e-01,6.910094792311315404e-01,1.330037386853337943e-05
5.414382087085921362e-09,6.626954935280675585e-01,9.955715397429653057e-01,7.024788351636047645e-01,1.510647645453101474e-05
5.402149763953187726e-09,6.686533005223885828e-01,9.955566148534262805e-01,7.084885574408527065e-01,1.641802005500638301e-05
5.383575485877417134e-09,6.776373232193623197e-01,9.955395279950450815e-01,7.149568670949991711e-01,1.849998740836105200e-05
5.362125687696038953e-09,6.879582623639016736e-01,9.955247930544034451e-01,7.208836566650611566e-01,2.101772537668905209e-05
5.342536658403622119e-09,6.973852959044104516e-01,9.955137403536284957e-01,7.256536787314763481e-01,2.339933801733385369e-05
5.323721303422635040e-09,7.065727803363981430e-01,9.955040494251432559e-01,7.299184148988507870e-01,2.573424174572587944e-05
5.304356665130064230e-09,7.165441120534619124e-01,9.954934576629534959e-01,7.342441909298327296e-01,2.805182833185815877e-05
5.288859671566513665e-09,7.250399182254374519e-01,9.954828701774319777e-01,7.377417337817631093e-01,2.961479469053981557e-05
5.274167827622751418e-09,7.329288043662356422e-01,9.954707488894816159e-01,7.408342470062370122e-01,3.078081143926759868e-05
5.259081400662310728e-09,7.405694755786176309e-01,9.954558347283826159e-01,7.436882001269433662e-01,3.182520961943287628e-05
5.243583806522216739e-09,7.480954720325401208e-01,9.954365563365641378e-01,7.463497706634567574e-01,3.284066648275332215e-05
5.227102292839391688e-09,7.558310603161538799e-01,9.954099478205402640e-01,7.489208615594833418e-01,3.387589630780878580e-05
5.206311818716998436e-09,7.652665183992946041e-01,9.953653763318799363e-01,7.518393774764750015e-01,3.507761276525252323e-05
5.183204923399108937e-09,7.755303226402109340e-01,9.952947888814061006e-01,7.548214310659560056e-01,3.616731881324039609e-05
5.163147360641065106e-09,7.842829127921808752e-01,9.952069636312684819e-01,7.572409070371416417e-01,3.678676408302856125e-05
5.143063690578527555e-09,7.927581803658211301e-01,9.950836446971121907e-01,7.594568049637058227e-01,3.698264150969187038e-05
5.121207903506448490e-09,8.014924287449393114e-01,9.948925752664407041e-01,7.615771137974629568e-01,3.681429903550710765e-05
5.099309549366981118e-09,8.099324664768970949e-01,9.946055087153143903e-01,7.633922532581846054e-01,3.663096750356061130e-05
5.076885360224133108e-09,8.182067013464902061e-01,9.941443001013338110e-01,7.640557783806347647e-01,3.643652224285468254e-05
5.049084296430941298e-09,8.276826434501317609e-01,9.931859865366675644e-01,7.638240289386331039e-01,3.619524923789413232e-05
5.023833290614337099e-09,8.354719934153865823e-01,9.917662131796761704e-01,7.628357390388185166e-01,3.598240568170212782e-05
5.004028517446537456e-09,8.411947121468480448e-01,9.900652721162080949e-01,7.608358185431464138e-01,3.581971787828444988e-05
4.994292155130852850e-09,8.440076129952823747e-01,9.889628369946337205e-01,7.589470807113878337e-01,3.573912868804176088e-05
4.974336285037302851e-09,8.495476595667618147e-01,9.859397300832185573e-01,7.548989709576503504e-01,3.558069900205253054e-05
4.938639456002140448e-09,8.601120828648495253e-01,9.775734371778745935e-01,7.473082517179701068e-01,3.531095142863350183e-05
4.902219239242511401e-09,8.729174594913985397e-01,9.654750067531935320e-01,7.393147492065649251e-01,3.504776349879844337e-05
4.870614976004857695e-09,8.881868173083830031e-01,9.516366827508100368e-01,7.317022597592839350e-01,3.481135172508349567e-05
4.843529325996540378e-09,9.069962278885965734e-01,9.374012791550663248e-01,7.242178848588085582e-01,3.459024103046367388e-05
4.810474932047461518e-09,9.310868023381677627e-01,9.219230667260197576e-01,7.163462453673390407e-01,3.436837773307181812e-05
4.775245735732465694e-09,9.526532558636346959e-01,9.059949895934814590e-01,7.074742355147703998e-01,3.412762044242241473e-05
4.737714040581056305e-09,9.629559658235249398e-01,8.939524424191930274e-01,6.983997517888316242e-01,3.388766632050963494e-05
4.703175691841173264e-09,9.667000453307339480e-01,8.885278702790758709e-01,6.891933149380935486e-01,3.365025354351358834e-05
4.670216592630757297e-09,9.684495383418886272e-01,8.867370796811130385e-01,6.798642144641167118e-01,3.341345297218040151e-05
4.655235940734201637e-09,9.690819294381579629e-01,8.864239304533385599e-01,6.754377202883501408e-01,3.330237463772738960e-05
